^C:\USERS\CRISTIAN\DESKTOP\SFML(LEARNING)\TUTORIAL5\TUTORIAL5\X64\DEBUG\MAINCPP.OBJ
C:\USERS\CRISTIAN\DESKTOP\SFML(LEARNING)\TUTORIAL5\X64\DEBUG\TUTORIAL5.ILK
C:\USERS\CRISTIAN\DESKTOP\SFML(LEARNING)\TUTORIAL5\X64\DEBUG\TUTORIAL5.EXE
C:\USERS\CRISTIAN\DESKTOP\SFML(LEARNING)\TUTORIAL5\X64\DEBUG\TUTORIAL5.PDB
