^C:\USERS\CRISTIAN\DESKTOP\CPP_2D_GAME_PROGRAMMING\LEARNING\LEARNING\GAME.CPP
/c /Zi /nologo /W3 /WX- /sdl /O2 /Oi /GL /D _MBCS /Gm- /EHsc /MD /GS /Gy /fp:precise /Zc:wchar_t /Zc:forScope /Fo"X64\RELEASE\\" /Fd"X64\RELEASE\VC120.PDB" /Gd /TP C:\USERS\CRISTIAN\DESKTOP\CPP_2D_GAME_PROGRAMMING\LEARNING\LEARNING\GAME.CPP
^C:\USERS\CRISTIAN\DESKTOP\CPP_2D_GAME_PROGRAMMING\LEARNING\LEARNING\PLAYER.CPP
/c /Zi /nologo /W3 /WX- /sdl /O2 /Oi /GL /D _MBCS /Gm- /EHsc /MD /GS /Gy /fp:precise /Zc:wchar_t /Zc:forScope /Fo"X64\RELEASE\\" /Fd"X64\RELEASE\VC120.PDB" /Gd /TP C:\USERS\CRISTIAN\DESKTOP\CPP_2D_GAME_PROGRAMMING\LEARNING\LEARNING\PLAYER.CPP
^C:\USERS\CRISTIAN\DESKTOP\CPP_2D_GAME_PROGRAMMING\LEARNING\LEARNING\SERVER.CPP
/c /Zi /nologo /W3 /WX- /sdl /O2 /Oi /GL /D _MBCS /Gm- /EHsc /MD /GS /Gy /fp:precise /Zc:wchar_t /Zc:forScope /Fo"X64\RELEASE\\" /Fd"X64\RELEASE\VC120.PDB" /Gd /TP C:\USERS\CRISTIAN\DESKTOP\CPP_2D_GAME_PROGRAMMING\LEARNING\LEARNING\SERVER.CPP
