^C:\USERS\CRISTIAN\DESKTOP\SFML(LEARNING)\TEST1\TEST1\X64\RELEASE\MAIN.OBJ
C:\USERS\CRISTIAN\DESKTOP\SFML(LEARNING)\TEST1\X64\RELEASE\TEST1.EXE
C:\USERS\CRISTIAN\DESKTOP\SFML(LEARNING)\TEST1\X64\RELEASE\TEST1.PDB
