^C:\USERS\CRISTIAN\DESKTOP\CPP_2D_GAME_PROGRAMMING\SIMPLERPG\SIMPLERPG\COMMON.CPP
C:\USERS\CRISTIAN\DESKTOP\CPP_2D_GAME_PROGRAMMING\SIMPLERPG\SIMPLERPG\COMMON.H
^C:\USERS\CRISTIAN\DESKTOP\CPP_2D_GAME_PROGRAMMING\SIMPLERPG\SIMPLERPG\VISIBLEENTITY.CPP
C:\USERS\CRISTIAN\DESKTOP\CPP_2D_GAME_PROGRAMMING\SIMPLERPG\SIMPLERPG\VISIBLEENTITY.H
C:\SFML-2.2\INCLUDE\SFML\GRAPHICS.HPP
C:\SFML-2.2\INCLUDE\SFML\WINDOW.HPP
C:\SFML-2.2\INCLUDE\SFML\SYSTEM.HPP
C:\SFML-2.2\INCLUDE\SFML\CONFIG.HPP
C:\SFML-2.2\INCLUDE\SFML\SYSTEM\CLOCK.HPP
C:\SFML-2.2\INCLUDE\SFML\SYSTEM\EXPORT.HPP
C:\SFML-2.2\INCLUDE\SFML\SYSTEM\TIME.HPP
C:\SFML-2.2\INCLUDE\SFML\SYSTEM\ERR.HPP
C:\PROGRAM FILES (X86)\MICROSOFT VISUAL STUDIO 12.0\VC\INCLUDE\OSTREAM
C:\PROGRAM FILES (X86)\MICROSOFT VISUAL STUDIO 12.0\VC\INCLUDE\IOS
C:\PROGRAM FILES (X86)\MICROSOFT VISUAL STUDIO 12.0\VC\INCLUDE\XLOCNUM
C:\PROGRAM FILES (X86)\MICROSOFT VISUAL STUDIO 12.0\VC\INCLUDE\CLIMITS
C:\PROGRAM FILES (X86)\MICROSOFT VISUAL STUDIO 12.0\VC\INCLUDE\YVALS.H
C:\PROGRAM FILES (X86)\MICROSOFT VISUAL STUDIO 12.0\VC\INCLUDE\XKEYCHECK.H
C:\PROGRAM FILES (X86)\MICROSOFT VISUAL STUDIO 12.0\VC\INCLUDE\CRTDEFS.H
C:\PROGRAM FILES (X86)\MICROSOFT VISUAL STUDIO 12.0\VC\INCLUDE\SAL.H
C:\PROGRAM FILES (X86)\MICROSOFT VISUAL STUDIO 12.0\VC\INCLUDE\CONCURRENCYSAL.H
C:\PROGRAM FILES (X86)\MICROSOFT VISUAL STUDIO 12.0\VC\INCLUDE\VADEFS.H
C:\PROGRAM FILES (X86)\MICROSOFT VISUAL STUDIO 12.0\VC\INCLUDE\USE_ANSI.H
C:\PROGRAM FILES (X86)\MICROSOFT VISUAL STUDIO 12.0\VC\INCLUDE\LIMITS.H
C:\PROGRAM FILES (X86)\MICROSOFT VISUAL STUDIO 12.0\VC\INCLUDE\CMATH
C:\PROGRAM FILES (X86)\MICROSOFT VISUAL STUDIO 12.0\VC\INCLUDE\MATH.H
C:\PROGRAM FILES (X86)\MICROSOFT VISUAL STUDIO 12.0\VC\INCLUDE\XTGMATH.H
C:\PROGRAM FILES (X86)\MICROSOFT VISUAL STUDIO 12.0\VC\INCLUDE\XTR1COMMON
C:\PROGRAM FILES (X86)\MICROSOFT VISUAL STUDIO 12.0\VC\INCLUDE\CSTDIO
C:\PROGRAM FILES (X86)\MICROSOFT VISUAL STUDIO 12.0\VC\INCLUDE\STDIO.H
C:\PROGRAM FILES (X86)\MICROSOFT VISUAL STUDIO 12.0\VC\INCLUDE\SWPRINTF.INL
C:\PROGRAM FILES (X86)\MICROSOFT VISUAL STUDIO 12.0\VC\INCLUDE\CSTDLIB
C:\PROGRAM FILES (X86)\MICROSOFT VISUAL STUDIO 12.0\VC\INCLUDE\STDLIB.H
C:\PROGRAM FILES (X86)\MICROSOFT VISUAL STUDIO 12.0\VC\INCLUDE\STREAMBUF
C:\PROGRAM FILES (X86)\MICROSOFT VISUAL STUDIO 12.0\VC\INCLUDE\XIOSBASE
C:\PROGRAM FILES (X86)\MICROSOFT VISUAL STUDIO 12.0\VC\INCLUDE\XLOCALE
C:\PROGRAM FILES (X86)\MICROSOFT VISUAL STUDIO 12.0\VC\INCLUDE\CSTRING
C:\PROGRAM FILES (X86)\MICROSOFT VISUAL STUDIO 12.0\VC\INCLUDE\STRING.H
C:\PROGRAM FILES (X86)\MICROSOFT VISUAL STUDIO 12.0\VC\INCLUDE\STDEXCEPT
C:\PROGRAM FILES (X86)\MICROSOFT VISUAL STUDIO 12.0\VC\INCLUDE\EXCEPTION
C:\PROGRAM FILES (X86)\MICROSOFT VISUAL STUDIO 12.0\VC\INCLUDE\XSTDDEF
C:\PROGRAM FILES (X86)\MICROSOFT VISUAL STUDIO 12.0\VC\INCLUDE\CSTDDEF
C:\PROGRAM FILES (X86)\MICROSOFT VISUAL STUDIO 12.0\VC\INCLUDE\STDDEF.H
C:\PROGRAM FILES (X86)\MICROSOFT VISUAL STUDIO 12.0\VC\INCLUDE\INITIALIZER_LIST
C:\PROGRAM FILES (X86)\MICROSOFT VISUAL STUDIO 12.0\VC\INCLUDE\EH.H
C:\PROGRAM FILES (X86)\MICROSOFT VISUAL STUDIO 12.0\VC\INCLUDE\MALLOC.H
C:\PROGRAM FILES (X86)\MICROSOFT VISUAL STUDIO 12.0\VC\INCLUDE\XSTRING
C:\PROGRAM FILES (X86)\MICROSOFT VISUAL STUDIO 12.0\VC\INCLUDE\XMEMORY0
C:\PROGRAM FILES (X86)\MICROSOFT VISUAL STUDIO 12.0\VC\INCLUDE\LIMITS
C:\PROGRAM FILES (X86)\MICROSOFT VISUAL STUDIO 12.0\VC\INCLUDE\YMATH.H
C:\PROGRAM FILES (X86)\MICROSOFT VISUAL STUDIO 12.0\VC\INCLUDE\CFLOAT
C:\PROGRAM FILES (X86)\MICROSOFT VISUAL STUDIO 12.0\VC\INCLUDE\FLOAT.H
C:\PROGRAM FILES (X86)\MICROSOFT VISUAL STUDIO 12.0\VC\INCLUDE\CRTWRN.H
C:\PROGRAM FILES (X86)\MICROSOFT VISUAL STUDIO 12.0\VC\INCLUDE\CWCHAR
C:\PROGRAM FILES (X86)\MICROSOFT VISUAL STUDIO 12.0\VC\INCLUDE\WCHAR.H
C:\PROGRAM FILES (X86)\MICROSOFT VISUAL STUDIO 12.0\VC\INCLUDE\WTIME.INL
C:\PROGRAM FILES (X86)\MICROSOFT VISUAL STUDIO 12.0\VC\INCLUDE\NEW
C:\PROGRAM FILES (X86)\MICROSOFT VISUAL STUDIO 12.0\VC\INCLUDE\XUTILITY
C:\PROGRAM FILES (X86)\MICROSOFT VISUAL STUDIO 12.0\VC\INCLUDE\UTILITY
C:\PROGRAM FILES (X86)\MICROSOFT VISUAL STUDIO 12.0\VC\INCLUDE\IOSFWD
C:\PROGRAM FILES (X86)\MICROSOFT VISUAL STUDIO 12.0\VC\INCLUDE\CRTDBG.H
C:\PROGRAM FILES (X86)\MICROSOFT VISUAL STUDIO 12.0\VC\INCLUDE\TYPE_TRAITS
C:\PROGRAM FILES (X86)\MICROSOFT VISUAL STUDIO 12.0\VC\INCLUDE\XREFWRAP
C:\PROGRAM FILES (X86)\MICROSOFT VISUAL STUDIO 12.0\VC\INCLUDE\XATOMIC0.H
C:\PROGRAM FILES (X86)\MICROSOFT VISUAL STUDIO 12.0\VC\INCLUDE\INTRIN.H
C:\PROGRAM FILES (X86)\MICROSOFT VISUAL STUDIO 12.0\VC\INCLUDE\SETJMP.H
C:\PROGRAM FILES (X86)\MICROSOFT VISUAL STUDIO 12.0\VC\INCLUDE\IMMINTRIN.H
C:\PROGRAM FILES (X86)\MICROSOFT VISUAL STUDIO 12.0\VC\INCLUDE\WMMINTRIN.H
C:\PROGRAM FILES (X86)\MICROSOFT VISUAL STUDIO 12.0\VC\INCLUDE\NMMINTRIN.H
C:\PROGRAM FILES (X86)\MICROSOFT VISUAL STUDIO 12.0\VC\INCLUDE\SMMINTRIN.H
C:\PROGRAM FILES (X86)\MICROSOFT VISUAL STUDIO 12.0\VC\INCLUDE\TMMINTRIN.H
C:\PROGRAM FILES (X86)\MICROSOFT VISUAL STUDIO 12.0\VC\INCLUDE\PMMINTRIN.H
C:\PROGRAM FILES (X86)\MICROSOFT VISUAL STUDIO 12.0\VC\INCLUDE\EMMINTRIN.H
C:\PROGRAM FILES (X86)\MICROSOFT VISUAL STUDIO 12.0\VC\INCLUDE\XMMINTRIN.H
C:\PROGRAM FILES (X86)\MICROSOFT VISUAL STUDIO 12.0\VC\INCLUDE\MMINTRIN.H
C:\PROGRAM FILES (X86)\MICROSOFT VISUAL STUDIO 12.0\VC\INCLUDE\AMMINTRIN.H
C:\PROGRAM FILES (X86)\MICROSOFT VISUAL STUDIO 12.0\VC\INCLUDE\TYPEINFO
C:\PROGRAM FILES (X86)\MICROSOFT VISUAL STUDIO 12.0\VC\INCLUDE\XLOCINFO
C:\PROGRAM FILES (X86)\MICROSOFT VISUAL STUDIO 12.0\VC\INCLUDE\XLOCINFO.H
C:\PROGRAM FILES (X86)\MICROSOFT VISUAL STUDIO 12.0\VC\INCLUDE\CTYPE.H
C:\PROGRAM FILES (X86)\MICROSOFT VISUAL STUDIO 12.0\VC\INCLUDE\LOCALE.H
C:\PROGRAM FILES (X86)\MICROSOFT VISUAL STUDIO 12.0\VC\INCLUDE\XDEBUG
C:\PROGRAM FILES (X86)\MICROSOFT VISUAL STUDIO 12.0\VC\INCLUDE\XFACET
C:\PROGRAM FILES (X86)\MICROSOFT VISUAL STUDIO 12.0\VC\INCLUDE\SYSTEM_ERROR
C:\PROGRAM FILES (X86)\MICROSOFT VISUAL STUDIO 12.0\VC\INCLUDE\CERRNO
C:\PROGRAM FILES (X86)\MICROSOFT VISUAL STUDIO 12.0\VC\INCLUDE\ERRNO.H
C:\PROGRAM FILES (X86)\MICROSOFT VISUAL STUDIO 12.0\VC\INCLUDE\SHARE.H
C:\SFML-2.2\INCLUDE\SFML\SYSTEM\INPUTSTREAM.HPP
C:\SFML-2.2\INCLUDE\SFML\SYSTEM\LOCK.HPP
C:\SFML-2.2\INCLUDE\SFML\SYSTEM\NONCOPYABLE.HPP
C:\SFML-2.2\INCLUDE\SFML\SYSTEM\MUTEX.HPP
C:\SFML-2.2\INCLUDE\SFML\SYSTEM\SLEEP.HPP
C:\SFML-2.2\INCLUDE\SFML\SYSTEM\STRING.HPP
C:\SFML-2.2\INCLUDE\SFML\SYSTEM\UTF.HPP
C:\PROGRAM FILES (X86)\MICROSOFT VISUAL STUDIO 12.0\VC\INCLUDE\ALGORITHM
C:\PROGRAM FILES (X86)\MICROSOFT VISUAL STUDIO 12.0\VC\INCLUDE\XMEMORY
C:\PROGRAM FILES (X86)\MICROSOFT VISUAL STUDIO 12.0\VC\INCLUDE\LOCALE
C:\PROGRAM FILES (X86)\MICROSOFT VISUAL STUDIO 12.0\VC\INCLUDE\STRING
C:\PROGRAM FILES (X86)\MICROSOFT VISUAL STUDIO 12.0\VC\INCLUDE\ITERATOR
C:\PROGRAM FILES (X86)\MICROSOFT VISUAL STUDIO 12.0\VC\INCLUDE\ISTREAM
C:\PROGRAM FILES (X86)\MICROSOFT VISUAL STUDIO 12.0\VC\INCLUDE\XLOCBUF
C:\PROGRAM FILES (X86)\MICROSOFT VISUAL STUDIO 12.0\VC\INCLUDE\XLOCMES
C:\PROGRAM FILES (X86)\MICROSOFT VISUAL STUDIO 12.0\VC\INCLUDE\XLOCMON
C:\PROGRAM FILES (X86)\MICROSOFT VISUAL STUDIO 12.0\VC\INCLUDE\XLOCTIME
C:\PROGRAM FILES (X86)\MICROSOFT VISUAL STUDIO 12.0\VC\INCLUDE\CTIME
C:\PROGRAM FILES (X86)\MICROSOFT VISUAL STUDIO 12.0\VC\INCLUDE\TIME.H
C:\PROGRAM FILES (X86)\MICROSOFT VISUAL STUDIO 12.0\VC\INCLUDE\TIME.INL
C:\SFML-2.2\INCLUDE\SFML\SYSTEM\UTF.INL
C:\SFML-2.2\INCLUDE\SFML\SYSTEM\STRING.INL
C:\SFML-2.2\INCLUDE\SFML\SYSTEM\THREAD.HPP
C:\SFML-2.2\INCLUDE\SFML\SYSTEM\THREAD.INL
C:\SFML-2.2\INCLUDE\SFML\SYSTEM\THREADLOCAL.HPP
C:\SFML-2.2\INCLUDE\SFML\SYSTEM\THREADLOCALPTR.HPP
C:\SFML-2.2\INCLUDE\SFML\SYSTEM\THREADLOCALPTR.INL
C:\SFML-2.2\INCLUDE\SFML\SYSTEM\VECTOR2.HPP
C:\SFML-2.2\INCLUDE\SFML\SYSTEM\VECTOR2.INL
C:\SFML-2.2\INCLUDE\SFML\SYSTEM\VECTOR3.HPP
C:\SFML-2.2\INCLUDE\SFML\SYSTEM\VECTOR3.INL
C:\SFML-2.2\INCLUDE\SFML\WINDOW\CONTEXT.HPP
C:\SFML-2.2\INCLUDE\SFML\WINDOW\EXPORT.HPP
C:\SFML-2.2\INCLUDE\SFML\WINDOW\GLRESOURCE.HPP
C:\SFML-2.2\INCLUDE\SFML\WINDOW\CONTEXTSETTINGS.HPP
C:\SFML-2.2\INCLUDE\SFML\WINDOW\EVENT.HPP
C:\SFML-2.2\INCLUDE\SFML\WINDOW\JOYSTICK.HPP
C:\SFML-2.2\INCLUDE\SFML\WINDOW\KEYBOARD.HPP
C:\SFML-2.2\INCLUDE\SFML\WINDOW\MOUSE.HPP
C:\SFML-2.2\INCLUDE\SFML\WINDOW\SENSOR.HPP
C:\SFML-2.2\INCLUDE\SFML\WINDOW\TOUCH.HPP
C:\SFML-2.2\INCLUDE\SFML\WINDOW\VIDEOMODE.HPP
C:\PROGRAM FILES (X86)\MICROSOFT VISUAL STUDIO 12.0\VC\INCLUDE\VECTOR
C:\SFML-2.2\INCLUDE\SFML\WINDOW\WINDOW.HPP
C:\SFML-2.2\INCLUDE\SFML\WINDOW\WINDOWHANDLE.HPP
C:\SFML-2.2\INCLUDE\SFML\WINDOW\WINDOWSTYLE.HPP
C:\SFML-2.2\INCLUDE\SFML\GRAPHICS\BLENDMODE.HPP
C:\SFML-2.2\INCLUDE\SFML\GRAPHICS\EXPORT.HPP
C:\SFML-2.2\INCLUDE\SFML\GRAPHICS\COLOR.HPP
C:\SFML-2.2\INCLUDE\SFML\GRAPHICS\FONT.HPP
C:\SFML-2.2\INCLUDE\SFML\GRAPHICS\GLYPH.HPP
C:\SFML-2.2\INCLUDE\SFML\GRAPHICS\RECT.HPP
C:\SFML-2.2\INCLUDE\SFML\GRAPHICS\RECT.INL
C:\SFML-2.2\INCLUDE\SFML\GRAPHICS\TEXTURE.HPP
C:\SFML-2.2\INCLUDE\SFML\GRAPHICS\IMAGE.HPP
C:\PROGRAM FILES (X86)\MICROSOFT VISUAL STUDIO 12.0\VC\INCLUDE\MAP
C:\PROGRAM FILES (X86)\MICROSOFT VISUAL STUDIO 12.0\VC\INCLUDE\XTREE
C:\PROGRAM FILES (X86)\MICROSOFT VISUAL STUDIO 12.0\VC\INCLUDE\TUPLE
C:\SFML-2.2\INCLUDE\SFML\GRAPHICS\RENDERSTATES.HPP
C:\SFML-2.2\INCLUDE\SFML\GRAPHICS\TRANSFORM.HPP
C:\SFML-2.2\INCLUDE\SFML\GRAPHICS\RENDERTEXTURE.HPP
C:\SFML-2.2\INCLUDE\SFML\GRAPHICS\RENDERTARGET.HPP
C:\SFML-2.2\INCLUDE\SFML\GRAPHICS\VIEW.HPP
C:\SFML-2.2\INCLUDE\SFML\GRAPHICS\PRIMITIVETYPE.HPP
C:\SFML-2.2\INCLUDE\SFML\GRAPHICS\VERTEX.HPP
C:\SFML-2.2\INCLUDE\SFML\GRAPHICS\RENDERWINDOW.HPP
C:\SFML-2.2\INCLUDE\SFML\GRAPHICS\SHADER.HPP
C:\SFML-2.2\INCLUDE\SFML\GRAPHICS\SHAPE.HPP
C:\SFML-2.2\INCLUDE\SFML\GRAPHICS\DRAWABLE.HPP
C:\SFML-2.2\INCLUDE\SFML\GRAPHICS\TRANSFORMABLE.HPP
C:\SFML-2.2\INCLUDE\SFML\GRAPHICS\VERTEXARRAY.HPP
C:\SFML-2.2\INCLUDE\SFML\GRAPHICS\CIRCLESHAPE.HPP
C:\SFML-2.2\INCLUDE\SFML\GRAPHICS\RECTANGLESHAPE.HPP
C:\SFML-2.2\INCLUDE\SFML\GRAPHICS\CONVEXSHAPE.HPP
C:\SFML-2.2\INCLUDE\SFML\GRAPHICS\SPRITE.HPP
C:\SFML-2.2\INCLUDE\SFML\GRAPHICS\TEXT.HPP
^C:\USERS\CRISTIAN\DESKTOP\CPP_2D_GAME_PROGRAMMING\SIMPLERPG\SIMPLERPG\RIGIDBODY.CPP
C:\USERS\CRISTIAN\DESKTOP\CPP_2D_GAME_PROGRAMMING\SIMPLERPG\SIMPLERPG\RIGIDBODY.H
C:\SFML-2.2\INCLUDE\SFML\GRAPHICS.HPP
C:\SFML-2.2\INCLUDE\SFML\WINDOW.HPP
C:\SFML-2.2\INCLUDE\SFML\SYSTEM.HPP
C:\SFML-2.2\INCLUDE\SFML\CONFIG.HPP
C:\SFML-2.2\INCLUDE\SFML\SYSTEM\CLOCK.HPP
C:\SFML-2.2\INCLUDE\SFML\SYSTEM\EXPORT.HPP
C:\SFML-2.2\INCLUDE\SFML\SYSTEM\TIME.HPP
C:\SFML-2.2\INCLUDE\SFML\SYSTEM\ERR.HPP
C:\PROGRAM FILES (X86)\MICROSOFT VISUAL STUDIO 12.0\VC\INCLUDE\OSTREAM
C:\PROGRAM FILES (X86)\MICROSOFT VISUAL STUDIO 12.0\VC\INCLUDE\IOS
C:\PROGRAM FILES (X86)\MICROSOFT VISUAL STUDIO 12.0\VC\INCLUDE\XLOCNUM
C:\PROGRAM FILES (X86)\MICROSOFT VISUAL STUDIO 12.0\VC\INCLUDE\CLIMITS
C:\PROGRAM FILES (X86)\MICROSOFT VISUAL STUDIO 12.0\VC\INCLUDE\YVALS.H
C:\PROGRAM FILES (X86)\MICROSOFT VISUAL STUDIO 12.0\VC\INCLUDE\XKEYCHECK.H
C:\PROGRAM FILES (X86)\MICROSOFT VISUAL STUDIO 12.0\VC\INCLUDE\CRTDEFS.H
C:\PROGRAM FILES (X86)\MICROSOFT VISUAL STUDIO 12.0\VC\INCLUDE\SAL.H
C:\PROGRAM FILES (X86)\MICROSOFT VISUAL STUDIO 12.0\VC\INCLUDE\CONCURRENCYSAL.H
C:\PROGRAM FILES (X86)\MICROSOFT VISUAL STUDIO 12.0\VC\INCLUDE\VADEFS.H
C:\PROGRAM FILES (X86)\MICROSOFT VISUAL STUDIO 12.0\VC\INCLUDE\USE_ANSI.H
C:\PROGRAM FILES (X86)\MICROSOFT VISUAL STUDIO 12.0\VC\INCLUDE\LIMITS.H
C:\PROGRAM FILES (X86)\MICROSOFT VISUAL STUDIO 12.0\VC\INCLUDE\CMATH
C:\PROGRAM FILES (X86)\MICROSOFT VISUAL STUDIO 12.0\VC\INCLUDE\MATH.H
C:\PROGRAM FILES (X86)\MICROSOFT VISUAL STUDIO 12.0\VC\INCLUDE\XTGMATH.H
C:\PROGRAM FILES (X86)\MICROSOFT VISUAL STUDIO 12.0\VC\INCLUDE\XTR1COMMON
C:\PROGRAM FILES (X86)\MICROSOFT VISUAL STUDIO 12.0\VC\INCLUDE\CSTDIO
C:\PROGRAM FILES (X86)\MICROSOFT VISUAL STUDIO 12.0\VC\INCLUDE\STDIO.H
C:\PROGRAM FILES (X86)\MICROSOFT VISUAL STUDIO 12.0\VC\INCLUDE\SWPRINTF.INL
C:\PROGRAM FILES (X86)\MICROSOFT VISUAL STUDIO 12.0\VC\INCLUDE\CSTDLIB
C:\PROGRAM FILES (X86)\MICROSOFT VISUAL STUDIO 12.0\VC\INCLUDE\STDLIB.H
C:\PROGRAM FILES (X86)\MICROSOFT VISUAL STUDIO 12.0\VC\INCLUDE\STREAMBUF
C:\PROGRAM FILES (X86)\MICROSOFT VISUAL STUDIO 12.0\VC\INCLUDE\XIOSBASE
C:\PROGRAM FILES (X86)\MICROSOFT VISUAL STUDIO 12.0\VC\INCLUDE\XLOCALE
C:\PROGRAM FILES (X86)\MICROSOFT VISUAL STUDIO 12.0\VC\INCLUDE\CSTRING
C:\PROGRAM FILES (X86)\MICROSOFT VISUAL STUDIO 12.0\VC\INCLUDE\STRING.H
C:\PROGRAM FILES (X86)\MICROSOFT VISUAL STUDIO 12.0\VC\INCLUDE\STDEXCEPT
C:\PROGRAM FILES (X86)\MICROSOFT VISUAL STUDIO 12.0\VC\INCLUDE\EXCEPTION
C:\PROGRAM FILES (X86)\MICROSOFT VISUAL STUDIO 12.0\VC\INCLUDE\XSTDDEF
C:\PROGRAM FILES (X86)\MICROSOFT VISUAL STUDIO 12.0\VC\INCLUDE\CSTDDEF
C:\PROGRAM FILES (X86)\MICROSOFT VISUAL STUDIO 12.0\VC\INCLUDE\STDDEF.H
C:\PROGRAM FILES (X86)\MICROSOFT VISUAL STUDIO 12.0\VC\INCLUDE\INITIALIZER_LIST
C:\PROGRAM FILES (X86)\MICROSOFT VISUAL STUDIO 12.0\VC\INCLUDE\EH.H
C:\PROGRAM FILES (X86)\MICROSOFT VISUAL STUDIO 12.0\VC\INCLUDE\MALLOC.H
C:\PROGRAM FILES (X86)\MICROSOFT VISUAL STUDIO 12.0\VC\INCLUDE\XSTRING
C:\PROGRAM FILES (X86)\MICROSOFT VISUAL STUDIO 12.0\VC\INCLUDE\XMEMORY0
C:\PROGRAM FILES (X86)\MICROSOFT VISUAL STUDIO 12.0\VC\INCLUDE\LIMITS
C:\PROGRAM FILES (X86)\MICROSOFT VISUAL STUDIO 12.0\VC\INCLUDE\YMATH.H
C:\PROGRAM FILES (X86)\MICROSOFT VISUAL STUDIO 12.0\VC\INCLUDE\CFLOAT
C:\PROGRAM FILES (X86)\MICROSOFT VISUAL STUDIO 12.0\VC\INCLUDE\FLOAT.H
C:\PROGRAM FILES (X86)\MICROSOFT VISUAL STUDIO 12.0\VC\INCLUDE\CRTWRN.H
C:\PROGRAM FILES (X86)\MICROSOFT VISUAL STUDIO 12.0\VC\INCLUDE\CWCHAR
C:\PROGRAM FILES (X86)\MICROSOFT VISUAL STUDIO 12.0\VC\INCLUDE\WCHAR.H
C:\PROGRAM FILES (X86)\MICROSOFT VISUAL STUDIO 12.0\VC\INCLUDE\WTIME.INL
C:\PROGRAM FILES (X86)\MICROSOFT VISUAL STUDIO 12.0\VC\INCLUDE\NEW
C:\PROGRAM FILES (X86)\MICROSOFT VISUAL STUDIO 12.0\VC\INCLUDE\XUTILITY
C:\PROGRAM FILES (X86)\MICROSOFT VISUAL STUDIO 12.0\VC\INCLUDE\UTILITY
C:\PROGRAM FILES (X86)\MICROSOFT VISUAL STUDIO 12.0\VC\INCLUDE\IOSFWD
C:\PROGRAM FILES (X86)\MICROSOFT VISUAL STUDIO 12.0\VC\INCLUDE\CRTDBG.H
C:\PROGRAM FILES (X86)\MICROSOFT VISUAL STUDIO 12.0\VC\INCLUDE\TYPE_TRAITS
C:\PROGRAM FILES (X86)\MICROSOFT VISUAL STUDIO 12.0\VC\INCLUDE\XREFWRAP
C:\PROGRAM FILES (X86)\MICROSOFT VISUAL STUDIO 12.0\VC\INCLUDE\XATOMIC0.H
C:\PROGRAM FILES (X86)\MICROSOFT VISUAL STUDIO 12.0\VC\INCLUDE\INTRIN.H
C:\PROGRAM FILES (X86)\MICROSOFT VISUAL STUDIO 12.0\VC\INCLUDE\SETJMP.H
C:\PROGRAM FILES (X86)\MICROSOFT VISUAL STUDIO 12.0\VC\INCLUDE\IMMINTRIN.H
C:\PROGRAM FILES (X86)\MICROSOFT VISUAL STUDIO 12.0\VC\INCLUDE\WMMINTRIN.H
C:\PROGRAM FILES (X86)\MICROSOFT VISUAL STUDIO 12.0\VC\INCLUDE\NMMINTRIN.H
C:\PROGRAM FILES (X86)\MICROSOFT VISUAL STUDIO 12.0\VC\INCLUDE\SMMINTRIN.H
C:\PROGRAM FILES (X86)\MICROSOFT VISUAL STUDIO 12.0\VC\INCLUDE\TMMINTRIN.H
C:\PROGRAM FILES (X86)\MICROSOFT VISUAL STUDIO 12.0\VC\INCLUDE\PMMINTRIN.H
C:\PROGRAM FILES (X86)\MICROSOFT VISUAL STUDIO 12.0\VC\INCLUDE\EMMINTRIN.H
C:\PROGRAM FILES (X86)\MICROSOFT VISUAL STUDIO 12.0\VC\INCLUDE\XMMINTRIN.H
C:\PROGRAM FILES (X86)\MICROSOFT VISUAL STUDIO 12.0\VC\INCLUDE\MMINTRIN.H
C:\PROGRAM FILES (X86)\MICROSOFT VISUAL STUDIO 12.0\VC\INCLUDE\AMMINTRIN.H
C:\PROGRAM FILES (X86)\MICROSOFT VISUAL STUDIO 12.0\VC\INCLUDE\TYPEINFO
C:\PROGRAM FILES (X86)\MICROSOFT VISUAL STUDIO 12.0\VC\INCLUDE\XLOCINFO
C:\PROGRAM FILES (X86)\MICROSOFT VISUAL STUDIO 12.0\VC\INCLUDE\XLOCINFO.H
C:\PROGRAM FILES (X86)\MICROSOFT VISUAL STUDIO 12.0\VC\INCLUDE\CTYPE.H
C:\PROGRAM FILES (X86)\MICROSOFT VISUAL STUDIO 12.0\VC\INCLUDE\LOCALE.H
C:\PROGRAM FILES (X86)\MICROSOFT VISUAL STUDIO 12.0\VC\INCLUDE\XDEBUG
C:\PROGRAM FILES (X86)\MICROSOFT VISUAL STUDIO 12.0\VC\INCLUDE\XFACET
C:\PROGRAM FILES (X86)\MICROSOFT VISUAL STUDIO 12.0\VC\INCLUDE\SYSTEM_ERROR
C:\PROGRAM FILES (X86)\MICROSOFT VISUAL STUDIO 12.0\VC\INCLUDE\CERRNO
C:\PROGRAM FILES (X86)\MICROSOFT VISUAL STUDIO 12.0\VC\INCLUDE\ERRNO.H
C:\PROGRAM FILES (X86)\MICROSOFT VISUAL STUDIO 12.0\VC\INCLUDE\SHARE.H
C:\SFML-2.2\INCLUDE\SFML\SYSTEM\INPUTSTREAM.HPP
C:\SFML-2.2\INCLUDE\SFML\SYSTEM\LOCK.HPP
C:\SFML-2.2\INCLUDE\SFML\SYSTEM\NONCOPYABLE.HPP
C:\SFML-2.2\INCLUDE\SFML\SYSTEM\MUTEX.HPP
C:\SFML-2.2\INCLUDE\SFML\SYSTEM\SLEEP.HPP
C:\SFML-2.2\INCLUDE\SFML\SYSTEM\STRING.HPP
C:\SFML-2.2\INCLUDE\SFML\SYSTEM\UTF.HPP
C:\PROGRAM FILES (X86)\MICROSOFT VISUAL STUDIO 12.0\VC\INCLUDE\ALGORITHM
C:\PROGRAM FILES (X86)\MICROSOFT VISUAL STUDIO 12.0\VC\INCLUDE\XMEMORY
C:\PROGRAM FILES (X86)\MICROSOFT VISUAL STUDIO 12.0\VC\INCLUDE\LOCALE
C:\PROGRAM FILES (X86)\MICROSOFT VISUAL STUDIO 12.0\VC\INCLUDE\STRING
C:\PROGRAM FILES (X86)\MICROSOFT VISUAL STUDIO 12.0\VC\INCLUDE\ITERATOR
C:\PROGRAM FILES (X86)\MICROSOFT VISUAL STUDIO 12.0\VC\INCLUDE\ISTREAM
C:\PROGRAM FILES (X86)\MICROSOFT VISUAL STUDIO 12.0\VC\INCLUDE\XLOCBUF
C:\PROGRAM FILES (X86)\MICROSOFT VISUAL STUDIO 12.0\VC\INCLUDE\XLOCMES
C:\PROGRAM FILES (X86)\MICROSOFT VISUAL STUDIO 12.0\VC\INCLUDE\XLOCMON
C:\PROGRAM FILES (X86)\MICROSOFT VISUAL STUDIO 12.0\VC\INCLUDE\XLOCTIME
C:\PROGRAM FILES (X86)\MICROSOFT VISUAL STUDIO 12.0\VC\INCLUDE\CTIME
C:\PROGRAM FILES (X86)\MICROSOFT VISUAL STUDIO 12.0\VC\INCLUDE\TIME.H
C:\PROGRAM FILES (X86)\MICROSOFT VISUAL STUDIO 12.0\VC\INCLUDE\TIME.INL
C:\SFML-2.2\INCLUDE\SFML\SYSTEM\UTF.INL
C:\SFML-2.2\INCLUDE\SFML\SYSTEM\STRING.INL
C:\SFML-2.2\INCLUDE\SFML\SYSTEM\THREAD.HPP
C:\SFML-2.2\INCLUDE\SFML\SYSTEM\THREAD.INL
C:\SFML-2.2\INCLUDE\SFML\SYSTEM\THREADLOCAL.HPP
C:\SFML-2.2\INCLUDE\SFML\SYSTEM\THREADLOCALPTR.HPP
C:\SFML-2.2\INCLUDE\SFML\SYSTEM\THREADLOCALPTR.INL
C:\SFML-2.2\INCLUDE\SFML\SYSTEM\VECTOR2.HPP
C:\SFML-2.2\INCLUDE\SFML\SYSTEM\VECTOR2.INL
C:\SFML-2.2\INCLUDE\SFML\SYSTEM\VECTOR3.HPP
C:\SFML-2.2\INCLUDE\SFML\SYSTEM\VECTOR3.INL
C:\SFML-2.2\INCLUDE\SFML\WINDOW\CONTEXT.HPP
C:\SFML-2.2\INCLUDE\SFML\WINDOW\EXPORT.HPP
C:\SFML-2.2\INCLUDE\SFML\WINDOW\GLRESOURCE.HPP
C:\SFML-2.2\INCLUDE\SFML\WINDOW\CONTEXTSETTINGS.HPP
C:\SFML-2.2\INCLUDE\SFML\WINDOW\EVENT.HPP
C:\SFML-2.2\INCLUDE\SFML\WINDOW\JOYSTICK.HPP
C:\SFML-2.2\INCLUDE\SFML\WINDOW\KEYBOARD.HPP
C:\SFML-2.2\INCLUDE\SFML\WINDOW\MOUSE.HPP
C:\SFML-2.2\INCLUDE\SFML\WINDOW\SENSOR.HPP
C:\SFML-2.2\INCLUDE\SFML\WINDOW\TOUCH.HPP
C:\SFML-2.2\INCLUDE\SFML\WINDOW\VIDEOMODE.HPP
C:\PROGRAM FILES (X86)\MICROSOFT VISUAL STUDIO 12.0\VC\INCLUDE\VECTOR
C:\SFML-2.2\INCLUDE\SFML\WINDOW\WINDOW.HPP
C:\SFML-2.2\INCLUDE\SFML\WINDOW\WINDOWHANDLE.HPP
C:\SFML-2.2\INCLUDE\SFML\WINDOW\WINDOWSTYLE.HPP
C:\SFML-2.2\INCLUDE\SFML\GRAPHICS\BLENDMODE.HPP
C:\SFML-2.2\INCLUDE\SFML\GRAPHICS\EXPORT.HPP
C:\SFML-2.2\INCLUDE\SFML\GRAPHICS\COLOR.HPP
C:\SFML-2.2\INCLUDE\SFML\GRAPHICS\FONT.HPP
C:\SFML-2.2\INCLUDE\SFML\GRAPHICS\GLYPH.HPP
C:\SFML-2.2\INCLUDE\SFML\GRAPHICS\RECT.HPP
C:\SFML-2.2\INCLUDE\SFML\GRAPHICS\RECT.INL
C:\SFML-2.2\INCLUDE\SFML\GRAPHICS\TEXTURE.HPP
C:\SFML-2.2\INCLUDE\SFML\GRAPHICS\IMAGE.HPP
C:\PROGRAM FILES (X86)\MICROSOFT VISUAL STUDIO 12.0\VC\INCLUDE\MAP
C:\PROGRAM FILES (X86)\MICROSOFT VISUAL STUDIO 12.0\VC\INCLUDE\XTREE
C:\PROGRAM FILES (X86)\MICROSOFT VISUAL STUDIO 12.0\VC\INCLUDE\TUPLE
C:\SFML-2.2\INCLUDE\SFML\GRAPHICS\RENDERSTATES.HPP
C:\SFML-2.2\INCLUDE\SFML\GRAPHICS\TRANSFORM.HPP
C:\SFML-2.2\INCLUDE\SFML\GRAPHICS\RENDERTEXTURE.HPP
C:\SFML-2.2\INCLUDE\SFML\GRAPHICS\RENDERTARGET.HPP
C:\SFML-2.2\INCLUDE\SFML\GRAPHICS\VIEW.HPP
C:\SFML-2.2\INCLUDE\SFML\GRAPHICS\PRIMITIVETYPE.HPP
C:\SFML-2.2\INCLUDE\SFML\GRAPHICS\VERTEX.HPP
C:\SFML-2.2\INCLUDE\SFML\GRAPHICS\RENDERWINDOW.HPP
C:\SFML-2.2\INCLUDE\SFML\GRAPHICS\SHADER.HPP
C:\SFML-2.2\INCLUDE\SFML\GRAPHICS\SHAPE.HPP
C:\SFML-2.2\INCLUDE\SFML\GRAPHICS\DRAWABLE.HPP
C:\SFML-2.2\INCLUDE\SFML\GRAPHICS\TRANSFORMABLE.HPP
C:\SFML-2.2\INCLUDE\SFML\GRAPHICS\VERTEXARRAY.HPP
C:\SFML-2.2\INCLUDE\SFML\GRAPHICS\CIRCLESHAPE.HPP
C:\SFML-2.2\INCLUDE\SFML\GRAPHICS\RECTANGLESHAPE.HPP
C:\SFML-2.2\INCLUDE\SFML\GRAPHICS\CONVEXSHAPE.HPP
C:\SFML-2.2\INCLUDE\SFML\GRAPHICS\SPRITE.HPP
C:\SFML-2.2\INCLUDE\SFML\GRAPHICS\TEXT.HPP
^C:\USERS\CRISTIAN\DESKTOP\CPP_2D_GAME_PROGRAMMING\SIMPLERPG\SIMPLERPG\TILEMAP.CPP
C:\USERS\CRISTIAN\DESKTOP\CPP_2D_GAME_PROGRAMMING\SIMPLERPG\SIMPLERPG\TILEMAP.H
C:\PROGRAM FILES (X86)\MICROSOFT VISUAL STUDIO 12.0\VC\INCLUDE\IOSTREAM
C:\PROGRAM FILES (X86)\MICROSOFT VISUAL STUDIO 12.0\VC\INCLUDE\ISTREAM
C:\PROGRAM FILES (X86)\MICROSOFT VISUAL STUDIO 12.0\VC\INCLUDE\OSTREAM
C:\PROGRAM FILES (X86)\MICROSOFT VISUAL STUDIO 12.0\VC\INCLUDE\IOS
C:\PROGRAM FILES (X86)\MICROSOFT VISUAL STUDIO 12.0\VC\INCLUDE\XLOCNUM
C:\PROGRAM FILES (X86)\MICROSOFT VISUAL STUDIO 12.0\VC\INCLUDE\CLIMITS
C:\PROGRAM FILES (X86)\MICROSOFT VISUAL STUDIO 12.0\VC\INCLUDE\YVALS.H
C:\PROGRAM FILES (X86)\MICROSOFT VISUAL STUDIO 12.0\VC\INCLUDE\XKEYCHECK.H
C:\PROGRAM FILES (X86)\MICROSOFT VISUAL STUDIO 12.0\VC\INCLUDE\CRTDEFS.H
C:\PROGRAM FILES (X86)\MICROSOFT VISUAL STUDIO 12.0\VC\INCLUDE\SAL.H
C:\PROGRAM FILES (X86)\MICROSOFT VISUAL STUDIO 12.0\VC\INCLUDE\CONCURRENCYSAL.H
C:\PROGRAM FILES (X86)\MICROSOFT VISUAL STUDIO 12.0\VC\INCLUDE\VADEFS.H
C:\PROGRAM FILES (X86)\MICROSOFT VISUAL STUDIO 12.0\VC\INCLUDE\USE_ANSI.H
C:\PROGRAM FILES (X86)\MICROSOFT VISUAL STUDIO 12.0\VC\INCLUDE\LIMITS.H
C:\PROGRAM FILES (X86)\MICROSOFT VISUAL STUDIO 12.0\VC\INCLUDE\CMATH
C:\PROGRAM FILES (X86)\MICROSOFT VISUAL STUDIO 12.0\VC\INCLUDE\MATH.H
C:\PROGRAM FILES (X86)\MICROSOFT VISUAL STUDIO 12.0\VC\INCLUDE\XTGMATH.H
C:\PROGRAM FILES (X86)\MICROSOFT VISUAL STUDIO 12.0\VC\INCLUDE\XTR1COMMON
C:\PROGRAM FILES (X86)\MICROSOFT VISUAL STUDIO 12.0\VC\INCLUDE\CSTDIO
C:\PROGRAM FILES (X86)\MICROSOFT VISUAL STUDIO 12.0\VC\INCLUDE\STDIO.H
C:\PROGRAM FILES (X86)\MICROSOFT VISUAL STUDIO 12.0\VC\INCLUDE\SWPRINTF.INL
C:\PROGRAM FILES (X86)\MICROSOFT VISUAL STUDIO 12.0\VC\INCLUDE\CSTDLIB
C:\PROGRAM FILES (X86)\MICROSOFT VISUAL STUDIO 12.0\VC\INCLUDE\STDLIB.H
C:\PROGRAM FILES (X86)\MICROSOFT VISUAL STUDIO 12.0\VC\INCLUDE\STREAMBUF
C:\PROGRAM FILES (X86)\MICROSOFT VISUAL STUDIO 12.0\VC\INCLUDE\XIOSBASE
C:\PROGRAM FILES (X86)\MICROSOFT VISUAL STUDIO 12.0\VC\INCLUDE\XLOCALE
C:\PROGRAM FILES (X86)\MICROSOFT VISUAL STUDIO 12.0\VC\INCLUDE\CSTRING
C:\PROGRAM FILES (X86)\MICROSOFT VISUAL STUDIO 12.0\VC\INCLUDE\STRING.H
C:\PROGRAM FILES (X86)\MICROSOFT VISUAL STUDIO 12.0\VC\INCLUDE\STDEXCEPT
C:\PROGRAM FILES (X86)\MICROSOFT VISUAL STUDIO 12.0\VC\INCLUDE\EXCEPTION
C:\PROGRAM FILES (X86)\MICROSOFT VISUAL STUDIO 12.0\VC\INCLUDE\XSTDDEF
C:\PROGRAM FILES (X86)\MICROSOFT VISUAL STUDIO 12.0\VC\INCLUDE\CSTDDEF
C:\PROGRAM FILES (X86)\MICROSOFT VISUAL STUDIO 12.0\VC\INCLUDE\STDDEF.H
C:\PROGRAM FILES (X86)\MICROSOFT VISUAL STUDIO 12.0\VC\INCLUDE\INITIALIZER_LIST
C:\PROGRAM FILES (X86)\MICROSOFT VISUAL STUDIO 12.0\VC\INCLUDE\EH.H
C:\PROGRAM FILES (X86)\MICROSOFT VISUAL STUDIO 12.0\VC\INCLUDE\MALLOC.H
C:\PROGRAM FILES (X86)\MICROSOFT VISUAL STUDIO 12.0\VC\INCLUDE\XSTRING
C:\PROGRAM FILES (X86)\MICROSOFT VISUAL STUDIO 12.0\VC\INCLUDE\XMEMORY0
C:\PROGRAM FILES (X86)\MICROSOFT VISUAL STUDIO 12.0\VC\INCLUDE\LIMITS
C:\PROGRAM FILES (X86)\MICROSOFT VISUAL STUDIO 12.0\VC\INCLUDE\YMATH.H
C:\PROGRAM FILES (X86)\MICROSOFT VISUAL STUDIO 12.0\VC\INCLUDE\CFLOAT
C:\PROGRAM FILES (X86)\MICROSOFT VISUAL STUDIO 12.0\VC\INCLUDE\FLOAT.H
C:\PROGRAM FILES (X86)\MICROSOFT VISUAL STUDIO 12.0\VC\INCLUDE\CRTWRN.H
C:\PROGRAM FILES (X86)\MICROSOFT VISUAL STUDIO 12.0\VC\INCLUDE\CWCHAR
C:\PROGRAM FILES (X86)\MICROSOFT VISUAL STUDIO 12.0\VC\INCLUDE\WCHAR.H
C:\PROGRAM FILES (X86)\MICROSOFT VISUAL STUDIO 12.0\VC\INCLUDE\WTIME.INL
C:\PROGRAM FILES (X86)\MICROSOFT VISUAL STUDIO 12.0\VC\INCLUDE\NEW
C:\PROGRAM FILES (X86)\MICROSOFT VISUAL STUDIO 12.0\VC\INCLUDE\XUTILITY
C:\PROGRAM FILES (X86)\MICROSOFT VISUAL STUDIO 12.0\VC\INCLUDE\UTILITY
C:\PROGRAM FILES (X86)\MICROSOFT VISUAL STUDIO 12.0\VC\INCLUDE\IOSFWD
C:\PROGRAM FILES (X86)\MICROSOFT VISUAL STUDIO 12.0\VC\INCLUDE\CRTDBG.H
C:\PROGRAM FILES (X86)\MICROSOFT VISUAL STUDIO 12.0\VC\INCLUDE\TYPE_TRAITS
C:\PROGRAM FILES (X86)\MICROSOFT VISUAL STUDIO 12.0\VC\INCLUDE\XREFWRAP
C:\PROGRAM FILES (X86)\MICROSOFT VISUAL STUDIO 12.0\VC\INCLUDE\XATOMIC0.H
C:\PROGRAM FILES (X86)\MICROSOFT VISUAL STUDIO 12.0\VC\INCLUDE\INTRIN.H
C:\PROGRAM FILES (X86)\MICROSOFT VISUAL STUDIO 12.0\VC\INCLUDE\SETJMP.H
C:\PROGRAM FILES (X86)\MICROSOFT VISUAL STUDIO 12.0\VC\INCLUDE\IMMINTRIN.H
C:\PROGRAM FILES (X86)\MICROSOFT VISUAL STUDIO 12.0\VC\INCLUDE\WMMINTRIN.H
C:\PROGRAM FILES (X86)\MICROSOFT VISUAL STUDIO 12.0\VC\INCLUDE\NMMINTRIN.H
C:\PROGRAM FILES (X86)\MICROSOFT VISUAL STUDIO 12.0\VC\INCLUDE\SMMINTRIN.H
C:\PROGRAM FILES (X86)\MICROSOFT VISUAL STUDIO 12.0\VC\INCLUDE\TMMINTRIN.H
C:\PROGRAM FILES (X86)\MICROSOFT VISUAL STUDIO 12.0\VC\INCLUDE\PMMINTRIN.H
C:\PROGRAM FILES (X86)\MICROSOFT VISUAL STUDIO 12.0\VC\INCLUDE\EMMINTRIN.H
C:\PROGRAM FILES (X86)\MICROSOFT VISUAL STUDIO 12.0\VC\INCLUDE\XMMINTRIN.H
C:\PROGRAM FILES (X86)\MICROSOFT VISUAL STUDIO 12.0\VC\INCLUDE\MMINTRIN.H
C:\PROGRAM FILES (X86)\MICROSOFT VISUAL STUDIO 12.0\VC\INCLUDE\AMMINTRIN.H
C:\PROGRAM FILES (X86)\MICROSOFT VISUAL STUDIO 12.0\VC\INCLUDE\TYPEINFO
C:\PROGRAM FILES (X86)\MICROSOFT VISUAL STUDIO 12.0\VC\INCLUDE\XLOCINFO
C:\PROGRAM FILES (X86)\MICROSOFT VISUAL STUDIO 12.0\VC\INCLUDE\XLOCINFO.H
C:\PROGRAM FILES (X86)\MICROSOFT VISUAL STUDIO 12.0\VC\INCLUDE\CTYPE.H
C:\PROGRAM FILES (X86)\MICROSOFT VISUAL STUDIO 12.0\VC\INCLUDE\LOCALE.H
C:\PROGRAM FILES (X86)\MICROSOFT VISUAL STUDIO 12.0\VC\INCLUDE\XDEBUG
C:\PROGRAM FILES (X86)\MICROSOFT VISUAL STUDIO 12.0\VC\INCLUDE\XFACET
C:\PROGRAM FILES (X86)\MICROSOFT VISUAL STUDIO 12.0\VC\INCLUDE\SYSTEM_ERROR
C:\PROGRAM FILES (X86)\MICROSOFT VISUAL STUDIO 12.0\VC\INCLUDE\CERRNO
C:\PROGRAM FILES (X86)\MICROSOFT VISUAL STUDIO 12.0\VC\INCLUDE\ERRNO.H
C:\PROGRAM FILES (X86)\MICROSOFT VISUAL STUDIO 12.0\VC\INCLUDE\SHARE.H
C:\SFML-2.2\INCLUDE\SFML\GRAPHICS.HPP
C:\SFML-2.2\INCLUDE\SFML\WINDOW.HPP
C:\SFML-2.2\INCLUDE\SFML\SYSTEM.HPP
C:\SFML-2.2\INCLUDE\SFML\CONFIG.HPP
C:\SFML-2.2\INCLUDE\SFML\SYSTEM\CLOCK.HPP
C:\SFML-2.2\INCLUDE\SFML\SYSTEM\EXPORT.HPP
C:\SFML-2.2\INCLUDE\SFML\SYSTEM\TIME.HPP
C:\SFML-2.2\INCLUDE\SFML\SYSTEM\ERR.HPP
C:\SFML-2.2\INCLUDE\SFML\SYSTEM\INPUTSTREAM.HPP
C:\SFML-2.2\INCLUDE\SFML\SYSTEM\LOCK.HPP
C:\SFML-2.2\INCLUDE\SFML\SYSTEM\NONCOPYABLE.HPP
C:\SFML-2.2\INCLUDE\SFML\SYSTEM\MUTEX.HPP
C:\SFML-2.2\INCLUDE\SFML\SYSTEM\SLEEP.HPP
C:\SFML-2.2\INCLUDE\SFML\SYSTEM\STRING.HPP
C:\SFML-2.2\INCLUDE\SFML\SYSTEM\UTF.HPP
C:\PROGRAM FILES (X86)\MICROSOFT VISUAL STUDIO 12.0\VC\INCLUDE\ALGORITHM
C:\PROGRAM FILES (X86)\MICROSOFT VISUAL STUDIO 12.0\VC\INCLUDE\XMEMORY
C:\PROGRAM FILES (X86)\MICROSOFT VISUAL STUDIO 12.0\VC\INCLUDE\LOCALE
C:\PROGRAM FILES (X86)\MICROSOFT VISUAL STUDIO 12.0\VC\INCLUDE\STRING
C:\PROGRAM FILES (X86)\MICROSOFT VISUAL STUDIO 12.0\VC\INCLUDE\ITERATOR
C:\PROGRAM FILES (X86)\MICROSOFT VISUAL STUDIO 12.0\VC\INCLUDE\XLOCBUF
C:\PROGRAM FILES (X86)\MICROSOFT VISUAL STUDIO 12.0\VC\INCLUDE\XLOCMES
C:\PROGRAM FILES (X86)\MICROSOFT VISUAL STUDIO 12.0\VC\INCLUDE\XLOCMON
C:\PROGRAM FILES (X86)\MICROSOFT VISUAL STUDIO 12.0\VC\INCLUDE\XLOCTIME
C:\PROGRAM FILES (X86)\MICROSOFT VISUAL STUDIO 12.0\VC\INCLUDE\CTIME
C:\PROGRAM FILES (X86)\MICROSOFT VISUAL STUDIO 12.0\VC\INCLUDE\TIME.H
C:\PROGRAM FILES (X86)\MICROSOFT VISUAL STUDIO 12.0\VC\INCLUDE\TIME.INL
C:\SFML-2.2\INCLUDE\SFML\SYSTEM\UTF.INL
C:\SFML-2.2\INCLUDE\SFML\SYSTEM\STRING.INL
C:\SFML-2.2\INCLUDE\SFML\SYSTEM\THREAD.HPP
C:\SFML-2.2\INCLUDE\SFML\SYSTEM\THREAD.INL
C:\SFML-2.2\INCLUDE\SFML\SYSTEM\THREADLOCAL.HPP
C:\SFML-2.2\INCLUDE\SFML\SYSTEM\THREADLOCALPTR.HPP
C:\SFML-2.2\INCLUDE\SFML\SYSTEM\THREADLOCALPTR.INL
C:\SFML-2.2\INCLUDE\SFML\SYSTEM\VECTOR2.HPP
C:\SFML-2.2\INCLUDE\SFML\SYSTEM\VECTOR2.INL
C:\SFML-2.2\INCLUDE\SFML\SYSTEM\VECTOR3.HPP
C:\SFML-2.2\INCLUDE\SFML\SYSTEM\VECTOR3.INL
C:\SFML-2.2\INCLUDE\SFML\WINDOW\CONTEXT.HPP
C:\SFML-2.2\INCLUDE\SFML\WINDOW\EXPORT.HPP
C:\SFML-2.2\INCLUDE\SFML\WINDOW\GLRESOURCE.HPP
C:\SFML-2.2\INCLUDE\SFML\WINDOW\CONTEXTSETTINGS.HPP
C:\SFML-2.2\INCLUDE\SFML\WINDOW\EVENT.HPP
C:\SFML-2.2\INCLUDE\SFML\WINDOW\JOYSTICK.HPP
C:\SFML-2.2\INCLUDE\SFML\WINDOW\KEYBOARD.HPP
C:\SFML-2.2\INCLUDE\SFML\WINDOW\MOUSE.HPP
C:\SFML-2.2\INCLUDE\SFML\WINDOW\SENSOR.HPP
C:\SFML-2.2\INCLUDE\SFML\WINDOW\TOUCH.HPP
C:\SFML-2.2\INCLUDE\SFML\WINDOW\VIDEOMODE.HPP
C:\PROGRAM FILES (X86)\MICROSOFT VISUAL STUDIO 12.0\VC\INCLUDE\VECTOR
C:\SFML-2.2\INCLUDE\SFML\WINDOW\WINDOW.HPP
C:\SFML-2.2\INCLUDE\SFML\WINDOW\WINDOWHANDLE.HPP
C:\SFML-2.2\INCLUDE\SFML\WINDOW\WINDOWSTYLE.HPP
C:\SFML-2.2\INCLUDE\SFML\GRAPHICS\BLENDMODE.HPP
C:\SFML-2.2\INCLUDE\SFML\GRAPHICS\EXPORT.HPP
C:\SFML-2.2\INCLUDE\SFML\GRAPHICS\COLOR.HPP
C:\SFML-2.2\INCLUDE\SFML\GRAPHICS\FONT.HPP
C:\SFML-2.2\INCLUDE\SFML\GRAPHICS\GLYPH.HPP
C:\SFML-2.2\INCLUDE\SFML\GRAPHICS\RECT.HPP
C:\SFML-2.2\INCLUDE\SFML\GRAPHICS\RECT.INL
C:\SFML-2.2\INCLUDE\SFML\GRAPHICS\TEXTURE.HPP
C:\SFML-2.2\INCLUDE\SFML\GRAPHICS\IMAGE.HPP
C:\PROGRAM FILES (X86)\MICROSOFT VISUAL STUDIO 12.0\VC\INCLUDE\MAP
C:\PROGRAM FILES (X86)\MICROSOFT VISUAL STUDIO 12.0\VC\INCLUDE\XTREE
C:\PROGRAM FILES (X86)\MICROSOFT VISUAL STUDIO 12.0\VC\INCLUDE\TUPLE
C:\SFML-2.2\INCLUDE\SFML\GRAPHICS\RENDERSTATES.HPP
C:\SFML-2.2\INCLUDE\SFML\GRAPHICS\TRANSFORM.HPP
C:\SFML-2.2\INCLUDE\SFML\GRAPHICS\RENDERTEXTURE.HPP
C:\SFML-2.2\INCLUDE\SFML\GRAPHICS\RENDERTARGET.HPP
C:\SFML-2.2\INCLUDE\SFML\GRAPHICS\VIEW.HPP
C:\SFML-2.2\INCLUDE\SFML\GRAPHICS\PRIMITIVETYPE.HPP
C:\SFML-2.2\INCLUDE\SFML\GRAPHICS\VERTEX.HPP
C:\SFML-2.2\INCLUDE\SFML\GRAPHICS\RENDERWINDOW.HPP
C:\SFML-2.2\INCLUDE\SFML\GRAPHICS\SHADER.HPP
C:\SFML-2.2\INCLUDE\SFML\GRAPHICS\SHAPE.HPP
C:\SFML-2.2\INCLUDE\SFML\GRAPHICS\DRAWABLE.HPP
C:\SFML-2.2\INCLUDE\SFML\GRAPHICS\TRANSFORMABLE.HPP
C:\SFML-2.2\INCLUDE\SFML\GRAPHICS\VERTEXARRAY.HPP
C:\SFML-2.2\INCLUDE\SFML\GRAPHICS\CIRCLESHAPE.HPP
C:\SFML-2.2\INCLUDE\SFML\GRAPHICS\RECTANGLESHAPE.HPP
C:\SFML-2.2\INCLUDE\SFML\GRAPHICS\CONVEXSHAPE.HPP
C:\SFML-2.2\INCLUDE\SFML\GRAPHICS\SPRITE.HPP
C:\SFML-2.2\INCLUDE\SFML\GRAPHICS\TEXT.HPP
C:\USERS\CRISTIAN\DESKTOP\CPP_2D_GAME_PROGRAMMING\SIMPLERPG\SIMPLERPG\COMMON.H
C:\USERS\CRISTIAN\DESKTOP\CPP_2D_GAME_PROGRAMMING\SIMPLERPG\SIMPLERPG\BITMAP_IMAGE.HPP
C:\PROGRAM FILES (X86)\MICROSOFT VISUAL STUDIO 12.0\VC\INCLUDE\FSTREAM
^C:\USERS\CRISTIAN\DESKTOP\CPP_2D_GAME_PROGRAMMING\SIMPLERPG\SIMPLERPG\PLAYER.CPP
C:\USERS\CRISTIAN\DESKTOP\CPP_2D_GAME_PROGRAMMING\SIMPLERPG\SIMPLERPG\PLAYER.H
C:\USERS\CRISTIAN\DESKTOP\CPP_2D_GAME_PROGRAMMING\SIMPLERPG\SIMPLERPG\RIGIDBODY.H
C:\SFML-2.2\INCLUDE\SFML\GRAPHICS.HPP
C:\SFML-2.2\INCLUDE\SFML\WINDOW.HPP
C:\SFML-2.2\INCLUDE\SFML\SYSTEM.HPP
C:\SFML-2.2\INCLUDE\SFML\CONFIG.HPP
C:\SFML-2.2\INCLUDE\SFML\SYSTEM\CLOCK.HPP
C:\SFML-2.2\INCLUDE\SFML\SYSTEM\EXPORT.HPP
C:\SFML-2.2\INCLUDE\SFML\SYSTEM\TIME.HPP
C:\SFML-2.2\INCLUDE\SFML\SYSTEM\ERR.HPP
C:\PROGRAM FILES (X86)\MICROSOFT VISUAL STUDIO 12.0\VC\INCLUDE\OSTREAM
C:\PROGRAM FILES (X86)\MICROSOFT VISUAL STUDIO 12.0\VC\INCLUDE\IOS
C:\PROGRAM FILES (X86)\MICROSOFT VISUAL STUDIO 12.0\VC\INCLUDE\XLOCNUM
C:\PROGRAM FILES (X86)\MICROSOFT VISUAL STUDIO 12.0\VC\INCLUDE\CLIMITS
C:\PROGRAM FILES (X86)\MICROSOFT VISUAL STUDIO 12.0\VC\INCLUDE\YVALS.H
C:\PROGRAM FILES (X86)\MICROSOFT VISUAL STUDIO 12.0\VC\INCLUDE\XKEYCHECK.H
C:\PROGRAM FILES (X86)\MICROSOFT VISUAL STUDIO 12.0\VC\INCLUDE\CRTDEFS.H
C:\PROGRAM FILES (X86)\MICROSOFT VISUAL STUDIO 12.0\VC\INCLUDE\SAL.H
C:\PROGRAM FILES (X86)\MICROSOFT VISUAL STUDIO 12.0\VC\INCLUDE\CONCURRENCYSAL.H
C:\PROGRAM FILES (X86)\MICROSOFT VISUAL STUDIO 12.0\VC\INCLUDE\VADEFS.H
C:\PROGRAM FILES (X86)\MICROSOFT VISUAL STUDIO 12.0\VC\INCLUDE\USE_ANSI.H
C:\PROGRAM FILES (X86)\MICROSOFT VISUAL STUDIO 12.0\VC\INCLUDE\LIMITS.H
C:\PROGRAM FILES (X86)\MICROSOFT VISUAL STUDIO 12.0\VC\INCLUDE\CMATH
C:\PROGRAM FILES (X86)\MICROSOFT VISUAL STUDIO 12.0\VC\INCLUDE\MATH.H
C:\PROGRAM FILES (X86)\MICROSOFT VISUAL STUDIO 12.0\VC\INCLUDE\XTGMATH.H
C:\PROGRAM FILES (X86)\MICROSOFT VISUAL STUDIO 12.0\VC\INCLUDE\XTR1COMMON
C:\PROGRAM FILES (X86)\MICROSOFT VISUAL STUDIO 12.0\VC\INCLUDE\CSTDIO
C:\PROGRAM FILES (X86)\MICROSOFT VISUAL STUDIO 12.0\VC\INCLUDE\STDIO.H
C:\PROGRAM FILES (X86)\MICROSOFT VISUAL STUDIO 12.0\VC\INCLUDE\SWPRINTF.INL
C:\PROGRAM FILES (X86)\MICROSOFT VISUAL STUDIO 12.0\VC\INCLUDE\CSTDLIB
C:\PROGRAM FILES (X86)\MICROSOFT VISUAL STUDIO 12.0\VC\INCLUDE\STDLIB.H
C:\PROGRAM FILES (X86)\MICROSOFT VISUAL STUDIO 12.0\VC\INCLUDE\STREAMBUF
C:\PROGRAM FILES (X86)\MICROSOFT VISUAL STUDIO 12.0\VC\INCLUDE\XIOSBASE
C:\PROGRAM FILES (X86)\MICROSOFT VISUAL STUDIO 12.0\VC\INCLUDE\XLOCALE
C:\PROGRAM FILES (X86)\MICROSOFT VISUAL STUDIO 12.0\VC\INCLUDE\CSTRING
C:\PROGRAM FILES (X86)\MICROSOFT VISUAL STUDIO 12.0\VC\INCLUDE\STRING.H
C:\PROGRAM FILES (X86)\MICROSOFT VISUAL STUDIO 12.0\VC\INCLUDE\STDEXCEPT
C:\PROGRAM FILES (X86)\MICROSOFT VISUAL STUDIO 12.0\VC\INCLUDE\EXCEPTION
C:\PROGRAM FILES (X86)\MICROSOFT VISUAL STUDIO 12.0\VC\INCLUDE\XSTDDEF
C:\PROGRAM FILES (X86)\MICROSOFT VISUAL STUDIO 12.0\VC\INCLUDE\CSTDDEF
C:\PROGRAM FILES (X86)\MICROSOFT VISUAL STUDIO 12.0\VC\INCLUDE\STDDEF.H
C:\PROGRAM FILES (X86)\MICROSOFT VISUAL STUDIO 12.0\VC\INCLUDE\INITIALIZER_LIST
C:\PROGRAM FILES (X86)\MICROSOFT VISUAL STUDIO 12.0\VC\INCLUDE\EH.H
C:\PROGRAM FILES (X86)\MICROSOFT VISUAL STUDIO 12.0\VC\INCLUDE\MALLOC.H
C:\PROGRAM FILES (X86)\MICROSOFT VISUAL STUDIO 12.0\VC\INCLUDE\XSTRING
C:\PROGRAM FILES (X86)\MICROSOFT VISUAL STUDIO 12.0\VC\INCLUDE\XMEMORY0
C:\PROGRAM FILES (X86)\MICROSOFT VISUAL STUDIO 12.0\VC\INCLUDE\LIMITS
C:\PROGRAM FILES (X86)\MICROSOFT VISUAL STUDIO 12.0\VC\INCLUDE\YMATH.H
C:\PROGRAM FILES (X86)\MICROSOFT VISUAL STUDIO 12.0\VC\INCLUDE\CFLOAT
C:\PROGRAM FILES (X86)\MICROSOFT VISUAL STUDIO 12.0\VC\INCLUDE\FLOAT.H
C:\PROGRAM FILES (X86)\MICROSOFT VISUAL STUDIO 12.0\VC\INCLUDE\CRTWRN.H
C:\PROGRAM FILES (X86)\MICROSOFT VISUAL STUDIO 12.0\VC\INCLUDE\CWCHAR
C:\PROGRAM FILES (X86)\MICROSOFT VISUAL STUDIO 12.0\VC\INCLUDE\WCHAR.H
C:\PROGRAM FILES (X86)\MICROSOFT VISUAL STUDIO 12.0\VC\INCLUDE\WTIME.INL
C:\PROGRAM FILES (X86)\MICROSOFT VISUAL STUDIO 12.0\VC\INCLUDE\NEW
C:\PROGRAM FILES (X86)\MICROSOFT VISUAL STUDIO 12.0\VC\INCLUDE\XUTILITY
C:\PROGRAM FILES (X86)\MICROSOFT VISUAL STUDIO 12.0\VC\INCLUDE\UTILITY
C:\PROGRAM FILES (X86)\MICROSOFT VISUAL STUDIO 12.0\VC\INCLUDE\IOSFWD
C:\PROGRAM FILES (X86)\MICROSOFT VISUAL STUDIO 12.0\VC\INCLUDE\CRTDBG.H
C:\PROGRAM FILES (X86)\MICROSOFT VISUAL STUDIO 12.0\VC\INCLUDE\TYPE_TRAITS
C:\PROGRAM FILES (X86)\MICROSOFT VISUAL STUDIO 12.0\VC\INCLUDE\XREFWRAP
C:\PROGRAM FILES (X86)\MICROSOFT VISUAL STUDIO 12.0\VC\INCLUDE\XATOMIC0.H
C:\PROGRAM FILES (X86)\MICROSOFT VISUAL STUDIO 12.0\VC\INCLUDE\INTRIN.H
C:\PROGRAM FILES (X86)\MICROSOFT VISUAL STUDIO 12.0\VC\INCLUDE\SETJMP.H
C:\PROGRAM FILES (X86)\MICROSOFT VISUAL STUDIO 12.0\VC\INCLUDE\IMMINTRIN.H
C:\PROGRAM FILES (X86)\MICROSOFT VISUAL STUDIO 12.0\VC\INCLUDE\WMMINTRIN.H
C:\PROGRAM FILES (X86)\MICROSOFT VISUAL STUDIO 12.0\VC\INCLUDE\NMMINTRIN.H
C:\PROGRAM FILES (X86)\MICROSOFT VISUAL STUDIO 12.0\VC\INCLUDE\SMMINTRIN.H
C:\PROGRAM FILES (X86)\MICROSOFT VISUAL STUDIO 12.0\VC\INCLUDE\TMMINTRIN.H
C:\PROGRAM FILES (X86)\MICROSOFT VISUAL STUDIO 12.0\VC\INCLUDE\PMMINTRIN.H
C:\PROGRAM FILES (X86)\MICROSOFT VISUAL STUDIO 12.0\VC\INCLUDE\EMMINTRIN.H
C:\PROGRAM FILES (X86)\MICROSOFT VISUAL STUDIO 12.0\VC\INCLUDE\XMMINTRIN.H
C:\PROGRAM FILES (X86)\MICROSOFT VISUAL STUDIO 12.0\VC\INCLUDE\MMINTRIN.H
C:\PROGRAM FILES (X86)\MICROSOFT VISUAL STUDIO 12.0\VC\INCLUDE\AMMINTRIN.H
C:\PROGRAM FILES (X86)\MICROSOFT VISUAL STUDIO 12.0\VC\INCLUDE\TYPEINFO
C:\PROGRAM FILES (X86)\MICROSOFT VISUAL STUDIO 12.0\VC\INCLUDE\XLOCINFO
C:\PROGRAM FILES (X86)\MICROSOFT VISUAL STUDIO 12.0\VC\INCLUDE\XLOCINFO.H
C:\PROGRAM FILES (X86)\MICROSOFT VISUAL STUDIO 12.0\VC\INCLUDE\CTYPE.H
C:\PROGRAM FILES (X86)\MICROSOFT VISUAL STUDIO 12.0\VC\INCLUDE\LOCALE.H
C:\PROGRAM FILES (X86)\MICROSOFT VISUAL STUDIO 12.0\VC\INCLUDE\XDEBUG
C:\PROGRAM FILES (X86)\MICROSOFT VISUAL STUDIO 12.0\VC\INCLUDE\XFACET
C:\PROGRAM FILES (X86)\MICROSOFT VISUAL STUDIO 12.0\VC\INCLUDE\SYSTEM_ERROR
C:\PROGRAM FILES (X86)\MICROSOFT VISUAL STUDIO 12.0\VC\INCLUDE\CERRNO
C:\PROGRAM FILES (X86)\MICROSOFT VISUAL STUDIO 12.0\VC\INCLUDE\ERRNO.H
C:\PROGRAM FILES (X86)\MICROSOFT VISUAL STUDIO 12.0\VC\INCLUDE\SHARE.H
C:\SFML-2.2\INCLUDE\SFML\SYSTEM\INPUTSTREAM.HPP
C:\SFML-2.2\INCLUDE\SFML\SYSTEM\LOCK.HPP
C:\SFML-2.2\INCLUDE\SFML\SYSTEM\NONCOPYABLE.HPP
C:\SFML-2.2\INCLUDE\SFML\SYSTEM\MUTEX.HPP
C:\SFML-2.2\INCLUDE\SFML\SYSTEM\SLEEP.HPP
C:\SFML-2.2\INCLUDE\SFML\SYSTEM\STRING.HPP
C:\SFML-2.2\INCLUDE\SFML\SYSTEM\UTF.HPP
C:\PROGRAM FILES (X86)\MICROSOFT VISUAL STUDIO 12.0\VC\INCLUDE\ALGORITHM
C:\PROGRAM FILES (X86)\MICROSOFT VISUAL STUDIO 12.0\VC\INCLUDE\XMEMORY
C:\PROGRAM FILES (X86)\MICROSOFT VISUAL STUDIO 12.0\VC\INCLUDE\LOCALE
C:\PROGRAM FILES (X86)\MICROSOFT VISUAL STUDIO 12.0\VC\INCLUDE\STRING
C:\PROGRAM FILES (X86)\MICROSOFT VISUAL STUDIO 12.0\VC\INCLUDE\ITERATOR
C:\PROGRAM FILES (X86)\MICROSOFT VISUAL STUDIO 12.0\VC\INCLUDE\ISTREAM
C:\PROGRAM FILES (X86)\MICROSOFT VISUAL STUDIO 12.0\VC\INCLUDE\XLOCBUF
C:\PROGRAM FILES (X86)\MICROSOFT VISUAL STUDIO 12.0\VC\INCLUDE\XLOCMES
C:\PROGRAM FILES (X86)\MICROSOFT VISUAL STUDIO 12.0\VC\INCLUDE\XLOCMON
C:\PROGRAM FILES (X86)\MICROSOFT VISUAL STUDIO 12.0\VC\INCLUDE\XLOCTIME
C:\PROGRAM FILES (X86)\MICROSOFT VISUAL STUDIO 12.0\VC\INCLUDE\CTIME
C:\PROGRAM FILES (X86)\MICROSOFT VISUAL STUDIO 12.0\VC\INCLUDE\TIME.H
C:\PROGRAM FILES (X86)\MICROSOFT VISUAL STUDIO 12.0\VC\INCLUDE\TIME.INL
C:\SFML-2.2\INCLUDE\SFML\SYSTEM\UTF.INL
C:\SFML-2.2\INCLUDE\SFML\SYSTEM\STRING.INL
C:\SFML-2.2\INCLUDE\SFML\SYSTEM\THREAD.HPP
C:\SFML-2.2\INCLUDE\SFML\SYSTEM\THREAD.INL
C:\SFML-2.2\INCLUDE\SFML\SYSTEM\THREADLOCAL.HPP
C:\SFML-2.2\INCLUDE\SFML\SYSTEM\THREADLOCALPTR.HPP
C:\SFML-2.2\INCLUDE\SFML\SYSTEM\THREADLOCALPTR.INL
C:\SFML-2.2\INCLUDE\SFML\SYSTEM\VECTOR2.HPP
C:\SFML-2.2\INCLUDE\SFML\SYSTEM\VECTOR2.INL
C:\SFML-2.2\INCLUDE\SFML\SYSTEM\VECTOR3.HPP
C:\SFML-2.2\INCLUDE\SFML\SYSTEM\VECTOR3.INL
C:\SFML-2.2\INCLUDE\SFML\WINDOW\CONTEXT.HPP
C:\SFML-2.2\INCLUDE\SFML\WINDOW\EXPORT.HPP
C:\SFML-2.2\INCLUDE\SFML\WINDOW\GLRESOURCE.HPP
C:\SFML-2.2\INCLUDE\SFML\WINDOW\CONTEXTSETTINGS.HPP
C:\SFML-2.2\INCLUDE\SFML\WINDOW\EVENT.HPP
C:\SFML-2.2\INCLUDE\SFML\WINDOW\JOYSTICK.HPP
C:\SFML-2.2\INCLUDE\SFML\WINDOW\KEYBOARD.HPP
C:\SFML-2.2\INCLUDE\SFML\WINDOW\MOUSE.HPP
C:\SFML-2.2\INCLUDE\SFML\WINDOW\SENSOR.HPP
C:\SFML-2.2\INCLUDE\SFML\WINDOW\TOUCH.HPP
C:\SFML-2.2\INCLUDE\SFML\WINDOW\VIDEOMODE.HPP
C:\PROGRAM FILES (X86)\MICROSOFT VISUAL STUDIO 12.0\VC\INCLUDE\VECTOR
C:\SFML-2.2\INCLUDE\SFML\WINDOW\WINDOW.HPP
C:\SFML-2.2\INCLUDE\SFML\WINDOW\WINDOWHANDLE.HPP
C:\SFML-2.2\INCLUDE\SFML\WINDOW\WINDOWSTYLE.HPP
C:\SFML-2.2\INCLUDE\SFML\GRAPHICS\BLENDMODE.HPP
C:\SFML-2.2\INCLUDE\SFML\GRAPHICS\EXPORT.HPP
C:\SFML-2.2\INCLUDE\SFML\GRAPHICS\COLOR.HPP
C:\SFML-2.2\INCLUDE\SFML\GRAPHICS\FONT.HPP
C:\SFML-2.2\INCLUDE\SFML\GRAPHICS\GLYPH.HPP
C:\SFML-2.2\INCLUDE\SFML\GRAPHICS\RECT.HPP
C:\SFML-2.2\INCLUDE\SFML\GRAPHICS\RECT.INL
C:\SFML-2.2\INCLUDE\SFML\GRAPHICS\TEXTURE.HPP
C:\SFML-2.2\INCLUDE\SFML\GRAPHICS\IMAGE.HPP
C:\PROGRAM FILES (X86)\MICROSOFT VISUAL STUDIO 12.0\VC\INCLUDE\MAP
C:\PROGRAM FILES (X86)\MICROSOFT VISUAL STUDIO 12.0\VC\INCLUDE\XTREE
C:\PROGRAM FILES (X86)\MICROSOFT VISUAL STUDIO 12.0\VC\INCLUDE\TUPLE
C:\SFML-2.2\INCLUDE\SFML\GRAPHICS\RENDERSTATES.HPP
C:\SFML-2.2\INCLUDE\SFML\GRAPHICS\TRANSFORM.HPP
C:\SFML-2.2\INCLUDE\SFML\GRAPHICS\RENDERTEXTURE.HPP
C:\SFML-2.2\INCLUDE\SFML\GRAPHICS\RENDERTARGET.HPP
C:\SFML-2.2\INCLUDE\SFML\GRAPHICS\VIEW.HPP
C:\SFML-2.2\INCLUDE\SFML\GRAPHICS\PRIMITIVETYPE.HPP
C:\SFML-2.2\INCLUDE\SFML\GRAPHICS\VERTEX.HPP
C:\SFML-2.2\INCLUDE\SFML\GRAPHICS\RENDERWINDOW.HPP
C:\SFML-2.2\INCLUDE\SFML\GRAPHICS\SHADER.HPP
C:\SFML-2.2\INCLUDE\SFML\GRAPHICS\SHAPE.HPP
C:\SFML-2.2\INCLUDE\SFML\GRAPHICS\DRAWABLE.HPP
C:\SFML-2.2\INCLUDE\SFML\GRAPHICS\TRANSFORMABLE.HPP
C:\SFML-2.2\INCLUDE\SFML\GRAPHICS\VERTEXARRAY.HPP
C:\SFML-2.2\INCLUDE\SFML\GRAPHICS\CIRCLESHAPE.HPP
C:\SFML-2.2\INCLUDE\SFML\GRAPHICS\RECTANGLESHAPE.HPP
C:\SFML-2.2\INCLUDE\SFML\GRAPHICS\CONVEXSHAPE.HPP
C:\SFML-2.2\INCLUDE\SFML\GRAPHICS\SPRITE.HPP
C:\SFML-2.2\INCLUDE\SFML\GRAPHICS\TEXT.HPP
C:\USERS\CRISTIAN\DESKTOP\CPP_2D_GAME_PROGRAMMING\SIMPLERPG\SIMPLERPG\COMMON.H
C:\USERS\CRISTIAN\DESKTOP\CPP_2D_GAME_PROGRAMMING\SIMPLERPG\SIMPLERPG\NETWORKING.H
C:\SFML-2.2\INCLUDE\SFML\NETWORK.HPP
C:\SFML-2.2\INCLUDE\SFML\NETWORK\FTP.HPP
C:\SFML-2.2\INCLUDE\SFML\NETWORK\EXPORT.HPP
C:\SFML-2.2\INCLUDE\SFML\NETWORK\TCPSOCKET.HPP
C:\SFML-2.2\INCLUDE\SFML\NETWORK\SOCKET.HPP
C:\SFML-2.2\INCLUDE\SFML\NETWORK\SOCKETHANDLE.HPP
C:\PROGRAM FILES (X86)\WINDOWS KITS\8.1\INCLUDE\SHARED\BASETSD.H
C:\SFML-2.2\INCLUDE\SFML\NETWORK\HTTP.HPP
C:\SFML-2.2\INCLUDE\SFML\NETWORK\IPADDRESS.HPP
C:\SFML-2.2\INCLUDE\SFML\NETWORK\PACKET.HPP
C:\SFML-2.2\INCLUDE\SFML\NETWORK\SOCKETSELECTOR.HPP
C:\SFML-2.2\INCLUDE\SFML\NETWORK\TCPLISTENER.HPP
C:\SFML-2.2\INCLUDE\SFML\NETWORK\UDPSOCKET.HPP
C:\PROGRAM FILES (X86)\MICROSOFT VISUAL STUDIO 12.0\VC\INCLUDE\IOSTREAM
^C:\USERS\CRISTIAN\DESKTOP\CPP_2D_GAME_PROGRAMMING\SIMPLERPG\SIMPLERPG\MAIN.CPP
C:\USERS\CRISTIAN\DESKTOP\CPP_2D_GAME_PROGRAMMING\SIMPLERPG\SIMPLERPG\GAME.H
C:\PROGRAM FILES (X86)\MICROSOFT VISUAL STUDIO 12.0\VC\INCLUDE\STRING
C:\PROGRAM FILES (X86)\MICROSOFT VISUAL STUDIO 12.0\VC\INCLUDE\ITERATOR
C:\PROGRAM FILES (X86)\MICROSOFT VISUAL STUDIO 12.0\VC\INCLUDE\ISTREAM
C:\PROGRAM FILES (X86)\MICROSOFT VISUAL STUDIO 12.0\VC\INCLUDE\OSTREAM
C:\PROGRAM FILES (X86)\MICROSOFT VISUAL STUDIO 12.0\VC\INCLUDE\IOS
C:\PROGRAM FILES (X86)\MICROSOFT VISUAL STUDIO 12.0\VC\INCLUDE\XLOCNUM
C:\PROGRAM FILES (X86)\MICROSOFT VISUAL STUDIO 12.0\VC\INCLUDE\CLIMITS
C:\PROGRAM FILES (X86)\MICROSOFT VISUAL STUDIO 12.0\VC\INCLUDE\YVALS.H
C:\PROGRAM FILES (X86)\MICROSOFT VISUAL STUDIO 12.0\VC\INCLUDE\XKEYCHECK.H
C:\PROGRAM FILES (X86)\MICROSOFT VISUAL STUDIO 12.0\VC\INCLUDE\CRTDEFS.H
C:\PROGRAM FILES (X86)\MICROSOFT VISUAL STUDIO 12.0\VC\INCLUDE\SAL.H
C:\PROGRAM FILES (X86)\MICROSOFT VISUAL STUDIO 12.0\VC\INCLUDE\CONCURRENCYSAL.H
C:\PROGRAM FILES (X86)\MICROSOFT VISUAL STUDIO 12.0\VC\INCLUDE\VADEFS.H
C:\PROGRAM FILES (X86)\MICROSOFT VISUAL STUDIO 12.0\VC\INCLUDE\USE_ANSI.H
C:\PROGRAM FILES (X86)\MICROSOFT VISUAL STUDIO 12.0\VC\INCLUDE\LIMITS.H
C:\PROGRAM FILES (X86)\MICROSOFT VISUAL STUDIO 12.0\VC\INCLUDE\CMATH
C:\PROGRAM FILES (X86)\MICROSOFT VISUAL STUDIO 12.0\VC\INCLUDE\MATH.H
C:\PROGRAM FILES (X86)\MICROSOFT VISUAL STUDIO 12.0\VC\INCLUDE\XTGMATH.H
C:\PROGRAM FILES (X86)\MICROSOFT VISUAL STUDIO 12.0\VC\INCLUDE\XTR1COMMON
C:\PROGRAM FILES (X86)\MICROSOFT VISUAL STUDIO 12.0\VC\INCLUDE\CSTDIO
C:\PROGRAM FILES (X86)\MICROSOFT VISUAL STUDIO 12.0\VC\INCLUDE\STDIO.H
C:\PROGRAM FILES (X86)\MICROSOFT VISUAL STUDIO 12.0\VC\INCLUDE\SWPRINTF.INL
C:\PROGRAM FILES (X86)\MICROSOFT VISUAL STUDIO 12.0\VC\INCLUDE\CSTDLIB
C:\PROGRAM FILES (X86)\MICROSOFT VISUAL STUDIO 12.0\VC\INCLUDE\STDLIB.H
C:\PROGRAM FILES (X86)\MICROSOFT VISUAL STUDIO 12.0\VC\INCLUDE\STREAMBUF
C:\PROGRAM FILES (X86)\MICROSOFT VISUAL STUDIO 12.0\VC\INCLUDE\XIOSBASE
C:\PROGRAM FILES (X86)\MICROSOFT VISUAL STUDIO 12.0\VC\INCLUDE\XLOCALE
C:\PROGRAM FILES (X86)\MICROSOFT VISUAL STUDIO 12.0\VC\INCLUDE\CSTRING
C:\PROGRAM FILES (X86)\MICROSOFT VISUAL STUDIO 12.0\VC\INCLUDE\STRING.H
C:\PROGRAM FILES (X86)\MICROSOFT VISUAL STUDIO 12.0\VC\INCLUDE\STDEXCEPT
C:\PROGRAM FILES (X86)\MICROSOFT VISUAL STUDIO 12.0\VC\INCLUDE\EXCEPTION
C:\PROGRAM FILES (X86)\MICROSOFT VISUAL STUDIO 12.0\VC\INCLUDE\XSTDDEF
C:\PROGRAM FILES (X86)\MICROSOFT VISUAL STUDIO 12.0\VC\INCLUDE\CSTDDEF
C:\PROGRAM FILES (X86)\MICROSOFT VISUAL STUDIO 12.0\VC\INCLUDE\STDDEF.H
C:\PROGRAM FILES (X86)\MICROSOFT VISUAL STUDIO 12.0\VC\INCLUDE\INITIALIZER_LIST
C:\PROGRAM FILES (X86)\MICROSOFT VISUAL STUDIO 12.0\VC\INCLUDE\EH.H
C:\PROGRAM FILES (X86)\MICROSOFT VISUAL STUDIO 12.0\VC\INCLUDE\MALLOC.H
C:\PROGRAM FILES (X86)\MICROSOFT VISUAL STUDIO 12.0\VC\INCLUDE\XSTRING
C:\PROGRAM FILES (X86)\MICROSOFT VISUAL STUDIO 12.0\VC\INCLUDE\XMEMORY0
C:\PROGRAM FILES (X86)\MICROSOFT VISUAL STUDIO 12.0\VC\INCLUDE\LIMITS
C:\PROGRAM FILES (X86)\MICROSOFT VISUAL STUDIO 12.0\VC\INCLUDE\YMATH.H
C:\PROGRAM FILES (X86)\MICROSOFT VISUAL STUDIO 12.0\VC\INCLUDE\CFLOAT
C:\PROGRAM FILES (X86)\MICROSOFT VISUAL STUDIO 12.0\VC\INCLUDE\FLOAT.H
C:\PROGRAM FILES (X86)\MICROSOFT VISUAL STUDIO 12.0\VC\INCLUDE\CRTWRN.H
C:\PROGRAM FILES (X86)\MICROSOFT VISUAL STUDIO 12.0\VC\INCLUDE\CWCHAR
C:\PROGRAM FILES (X86)\MICROSOFT VISUAL STUDIO 12.0\VC\INCLUDE\WCHAR.H
C:\PROGRAM FILES (X86)\MICROSOFT VISUAL STUDIO 12.0\VC\INCLUDE\WTIME.INL
C:\PROGRAM FILES (X86)\MICROSOFT VISUAL STUDIO 12.0\VC\INCLUDE\NEW
C:\PROGRAM FILES (X86)\MICROSOFT VISUAL STUDIO 12.0\VC\INCLUDE\XUTILITY
C:\PROGRAM FILES (X86)\MICROSOFT VISUAL STUDIO 12.0\VC\INCLUDE\UTILITY
C:\PROGRAM FILES (X86)\MICROSOFT VISUAL STUDIO 12.0\VC\INCLUDE\IOSFWD
C:\PROGRAM FILES (X86)\MICROSOFT VISUAL STUDIO 12.0\VC\INCLUDE\CRTDBG.H
C:\PROGRAM FILES (X86)\MICROSOFT VISUAL STUDIO 12.0\VC\INCLUDE\TYPE_TRAITS
C:\PROGRAM FILES (X86)\MICROSOFT VISUAL STUDIO 12.0\VC\INCLUDE\XREFWRAP
C:\PROGRAM FILES (X86)\MICROSOFT VISUAL STUDIO 12.0\VC\INCLUDE\XATOMIC0.H
C:\PROGRAM FILES (X86)\MICROSOFT VISUAL STUDIO 12.0\VC\INCLUDE\INTRIN.H
C:\PROGRAM FILES (X86)\MICROSOFT VISUAL STUDIO 12.0\VC\INCLUDE\SETJMP.H
C:\PROGRAM FILES (X86)\MICROSOFT VISUAL STUDIO 12.0\VC\INCLUDE\IMMINTRIN.H
C:\PROGRAM FILES (X86)\MICROSOFT VISUAL STUDIO 12.0\VC\INCLUDE\WMMINTRIN.H
C:\PROGRAM FILES (X86)\MICROSOFT VISUAL STUDIO 12.0\VC\INCLUDE\NMMINTRIN.H
C:\PROGRAM FILES (X86)\MICROSOFT VISUAL STUDIO 12.0\VC\INCLUDE\SMMINTRIN.H
C:\PROGRAM FILES (X86)\MICROSOFT VISUAL STUDIO 12.0\VC\INCLUDE\TMMINTRIN.H
C:\PROGRAM FILES (X86)\MICROSOFT VISUAL STUDIO 12.0\VC\INCLUDE\PMMINTRIN.H
C:\PROGRAM FILES (X86)\MICROSOFT VISUAL STUDIO 12.0\VC\INCLUDE\EMMINTRIN.H
C:\PROGRAM FILES (X86)\MICROSOFT VISUAL STUDIO 12.0\VC\INCLUDE\XMMINTRIN.H
C:\PROGRAM FILES (X86)\MICROSOFT VISUAL STUDIO 12.0\VC\INCLUDE\MMINTRIN.H
C:\PROGRAM FILES (X86)\MICROSOFT VISUAL STUDIO 12.0\VC\INCLUDE\AMMINTRIN.H
C:\PROGRAM FILES (X86)\MICROSOFT VISUAL STUDIO 12.0\VC\INCLUDE\TYPEINFO
C:\PROGRAM FILES (X86)\MICROSOFT VISUAL STUDIO 12.0\VC\INCLUDE\XLOCINFO
C:\PROGRAM FILES (X86)\MICROSOFT VISUAL STUDIO 12.0\VC\INCLUDE\XLOCINFO.H
C:\PROGRAM FILES (X86)\MICROSOFT VISUAL STUDIO 12.0\VC\INCLUDE\CTYPE.H
C:\PROGRAM FILES (X86)\MICROSOFT VISUAL STUDIO 12.0\VC\INCLUDE\LOCALE.H
C:\PROGRAM FILES (X86)\MICROSOFT VISUAL STUDIO 12.0\VC\INCLUDE\XDEBUG
C:\PROGRAM FILES (X86)\MICROSOFT VISUAL STUDIO 12.0\VC\INCLUDE\XFACET
C:\PROGRAM FILES (X86)\MICROSOFT VISUAL STUDIO 12.0\VC\INCLUDE\SYSTEM_ERROR
C:\PROGRAM FILES (X86)\MICROSOFT VISUAL STUDIO 12.0\VC\INCLUDE\CERRNO
C:\PROGRAM FILES (X86)\MICROSOFT VISUAL STUDIO 12.0\VC\INCLUDE\ERRNO.H
C:\PROGRAM FILES (X86)\MICROSOFT VISUAL STUDIO 12.0\VC\INCLUDE\SHARE.H
C:\PROGRAM FILES (X86)\MICROSOFT VISUAL STUDIO 12.0\VC\INCLUDE\THREAD
C:\PROGRAM FILES (X86)\MICROSOFT VISUAL STUDIO 12.0\VC\INCLUDE\FUNCTIONAL
C:\PROGRAM FILES (X86)\MICROSOFT VISUAL STUDIO 12.0\VC\INCLUDE\XFUNCTIONAL
C:\PROGRAM FILES (X86)\MICROSOFT VISUAL STUDIO 12.0\VC\INCLUDE\TUPLE
C:\PROGRAM FILES (X86)\MICROSOFT VISUAL STUDIO 12.0\VC\INCLUDE\CHRONO
C:\PROGRAM FILES (X86)\MICROSOFT VISUAL STUDIO 12.0\VC\INCLUDE\RATIO
C:\PROGRAM FILES (X86)\MICROSOFT VISUAL STUDIO 12.0\VC\INCLUDE\STDINT.H
C:\PROGRAM FILES (X86)\MICROSOFT VISUAL STUDIO 12.0\VC\INCLUDE\TIME.H
C:\PROGRAM FILES (X86)\MICROSOFT VISUAL STUDIO 12.0\VC\INCLUDE\TIME.INL
C:\PROGRAM FILES (X86)\MICROSOFT VISUAL STUDIO 12.0\VC\INCLUDE\THR\XTIMEC.H
C:\PROGRAM FILES (X86)\MICROSOFT VISUAL STUDIO 12.0\VC\INCLUDE\THR\XTHRCOMMON.H
C:\PROGRAM FILES (X86)\MICROSOFT VISUAL STUDIO 12.0\VC\INCLUDE\CONCRT.H
C:\PROGRAM FILES (X86)\WINDOWS KITS\8.1\INCLUDE\SHARED\GUIDDEF.H
C:\PROGRAM FILES (X86)\MICROSOFT VISUAL STUDIO 12.0\VC\INCLUDE\THR\XTHREAD
C:\PROGRAM FILES (X86)\MICROSOFT VISUAL STUDIO 12.0\VC\INCLUDE\THR\XTIME
C:\PROGRAM FILES (X86)\MICROSOFT VISUAL STUDIO 12.0\VC\INCLUDE\THR\XTHREADS.H
C:\USERS\CRISTIAN\DESKTOP\CPP_2D_GAME_PROGRAMMING\SIMPLERPG\SIMPLERPG\PLAYER.H
C:\USERS\CRISTIAN\DESKTOP\CPP_2D_GAME_PROGRAMMING\SIMPLERPG\SIMPLERPG\RIGIDBODY.H
C:\SFML-2.2\INCLUDE\SFML\GRAPHICS.HPP
C:\SFML-2.2\INCLUDE\SFML\WINDOW.HPP
C:\SFML-2.2\INCLUDE\SFML\SYSTEM.HPP
C:\SFML-2.2\INCLUDE\SFML\CONFIG.HPP
C:\SFML-2.2\INCLUDE\SFML\SYSTEM\CLOCK.HPP
C:\SFML-2.2\INCLUDE\SFML\SYSTEM\EXPORT.HPP
C:\SFML-2.2\INCLUDE\SFML\SYSTEM\TIME.HPP
C:\SFML-2.2\INCLUDE\SFML\SYSTEM\ERR.HPP
C:\SFML-2.2\INCLUDE\SFML\SYSTEM\INPUTSTREAM.HPP
C:\SFML-2.2\INCLUDE\SFML\SYSTEM\LOCK.HPP
C:\SFML-2.2\INCLUDE\SFML\SYSTEM\NONCOPYABLE.HPP
C:\SFML-2.2\INCLUDE\SFML\SYSTEM\MUTEX.HPP
C:\SFML-2.2\INCLUDE\SFML\SYSTEM\SLEEP.HPP
C:\SFML-2.2\INCLUDE\SFML\SYSTEM\STRING.HPP
C:\SFML-2.2\INCLUDE\SFML\SYSTEM\UTF.HPP
C:\PROGRAM FILES (X86)\MICROSOFT VISUAL STUDIO 12.0\VC\INCLUDE\ALGORITHM
C:\PROGRAM FILES (X86)\MICROSOFT VISUAL STUDIO 12.0\VC\INCLUDE\XMEMORY
C:\PROGRAM FILES (X86)\MICROSOFT VISUAL STUDIO 12.0\VC\INCLUDE\LOCALE
C:\PROGRAM FILES (X86)\MICROSOFT VISUAL STUDIO 12.0\VC\INCLUDE\XLOCBUF
C:\PROGRAM FILES (X86)\MICROSOFT VISUAL STUDIO 12.0\VC\INCLUDE\XLOCMES
C:\PROGRAM FILES (X86)\MICROSOFT VISUAL STUDIO 12.0\VC\INCLUDE\XLOCMON
C:\PROGRAM FILES (X86)\MICROSOFT VISUAL STUDIO 12.0\VC\INCLUDE\XLOCTIME
C:\PROGRAM FILES (X86)\MICROSOFT VISUAL STUDIO 12.0\VC\INCLUDE\CTIME
C:\SFML-2.2\INCLUDE\SFML\SYSTEM\UTF.INL
C:\SFML-2.2\INCLUDE\SFML\SYSTEM\STRING.INL
C:\SFML-2.2\INCLUDE\SFML\SYSTEM\THREAD.HPP
C:\SFML-2.2\INCLUDE\SFML\SYSTEM\THREAD.INL
C:\SFML-2.2\INCLUDE\SFML\SYSTEM\THREADLOCAL.HPP
C:\SFML-2.2\INCLUDE\SFML\SYSTEM\THREADLOCALPTR.HPP
C:\SFML-2.2\INCLUDE\SFML\SYSTEM\THREADLOCALPTR.INL
C:\SFML-2.2\INCLUDE\SFML\SYSTEM\VECTOR2.HPP
C:\SFML-2.2\INCLUDE\SFML\SYSTEM\VECTOR2.INL
C:\SFML-2.2\INCLUDE\SFML\SYSTEM\VECTOR3.HPP
C:\SFML-2.2\INCLUDE\SFML\SYSTEM\VECTOR3.INL
C:\SFML-2.2\INCLUDE\SFML\WINDOW\CONTEXT.HPP
C:\SFML-2.2\INCLUDE\SFML\WINDOW\EXPORT.HPP
C:\SFML-2.2\INCLUDE\SFML\WINDOW\GLRESOURCE.HPP
C:\SFML-2.2\INCLUDE\SFML\WINDOW\CONTEXTSETTINGS.HPP
C:\SFML-2.2\INCLUDE\SFML\WINDOW\EVENT.HPP
C:\SFML-2.2\INCLUDE\SFML\WINDOW\JOYSTICK.HPP
C:\SFML-2.2\INCLUDE\SFML\WINDOW\KEYBOARD.HPP
C:\SFML-2.2\INCLUDE\SFML\WINDOW\MOUSE.HPP
C:\SFML-2.2\INCLUDE\SFML\WINDOW\SENSOR.HPP
C:\SFML-2.2\INCLUDE\SFML\WINDOW\TOUCH.HPP
C:\SFML-2.2\INCLUDE\SFML\WINDOW\VIDEOMODE.HPP
C:\PROGRAM FILES (X86)\MICROSOFT VISUAL STUDIO 12.0\VC\INCLUDE\VECTOR
C:\SFML-2.2\INCLUDE\SFML\WINDOW\WINDOW.HPP
C:\SFML-2.2\INCLUDE\SFML\WINDOW\WINDOWHANDLE.HPP
C:\SFML-2.2\INCLUDE\SFML\WINDOW\WINDOWSTYLE.HPP
C:\SFML-2.2\INCLUDE\SFML\GRAPHICS\BLENDMODE.HPP
C:\SFML-2.2\INCLUDE\SFML\GRAPHICS\EXPORT.HPP
C:\SFML-2.2\INCLUDE\SFML\GRAPHICS\COLOR.HPP
C:\SFML-2.2\INCLUDE\SFML\GRAPHICS\FONT.HPP
C:\SFML-2.2\INCLUDE\SFML\GRAPHICS\GLYPH.HPP
C:\SFML-2.2\INCLUDE\SFML\GRAPHICS\RECT.HPP
C:\SFML-2.2\INCLUDE\SFML\GRAPHICS\RECT.INL
C:\SFML-2.2\INCLUDE\SFML\GRAPHICS\TEXTURE.HPP
C:\SFML-2.2\INCLUDE\SFML\GRAPHICS\IMAGE.HPP
C:\PROGRAM FILES (X86)\MICROSOFT VISUAL STUDIO 12.0\VC\INCLUDE\MAP
C:\PROGRAM FILES (X86)\MICROSOFT VISUAL STUDIO 12.0\VC\INCLUDE\XTREE
C:\SFML-2.2\INCLUDE\SFML\GRAPHICS\RENDERSTATES.HPP
C:\SFML-2.2\INCLUDE\SFML\GRAPHICS\TRANSFORM.HPP
C:\SFML-2.2\INCLUDE\SFML\GRAPHICS\RENDERTEXTURE.HPP
C:\SFML-2.2\INCLUDE\SFML\GRAPHICS\RENDERTARGET.HPP
C:\SFML-2.2\INCLUDE\SFML\GRAPHICS\VIEW.HPP
C:\SFML-2.2\INCLUDE\SFML\GRAPHICS\PRIMITIVETYPE.HPP
C:\SFML-2.2\INCLUDE\SFML\GRAPHICS\VERTEX.HPP
C:\SFML-2.2\INCLUDE\SFML\GRAPHICS\RENDERWINDOW.HPP
C:\SFML-2.2\INCLUDE\SFML\GRAPHICS\SHADER.HPP
C:\SFML-2.2\INCLUDE\SFML\GRAPHICS\SHAPE.HPP
C:\SFML-2.2\INCLUDE\SFML\GRAPHICS\DRAWABLE.HPP
C:\SFML-2.2\INCLUDE\SFML\GRAPHICS\TRANSFORMABLE.HPP
C:\SFML-2.2\INCLUDE\SFML\GRAPHICS\VERTEXARRAY.HPP
C:\SFML-2.2\INCLUDE\SFML\GRAPHICS\CIRCLESHAPE.HPP
C:\SFML-2.2\INCLUDE\SFML\GRAPHICS\RECTANGLESHAPE.HPP
C:\SFML-2.2\INCLUDE\SFML\GRAPHICS\CONVEXSHAPE.HPP
C:\SFML-2.2\INCLUDE\SFML\GRAPHICS\SPRITE.HPP
C:\SFML-2.2\INCLUDE\SFML\GRAPHICS\TEXT.HPP
C:\USERS\CRISTIAN\DESKTOP\CPP_2D_GAME_PROGRAMMING\SIMPLERPG\SIMPLERPG\COMMON.H
C:\USERS\CRISTIAN\DESKTOP\CPP_2D_GAME_PROGRAMMING\SIMPLERPG\SIMPLERPG\NETWORKING.H
C:\SFML-2.2\INCLUDE\SFML\NETWORK.HPP
C:\SFML-2.2\INCLUDE\SFML\NETWORK\FTP.HPP
C:\SFML-2.2\INCLUDE\SFML\NETWORK\EXPORT.HPP
C:\SFML-2.2\INCLUDE\SFML\NETWORK\TCPSOCKET.HPP
C:\SFML-2.2\INCLUDE\SFML\NETWORK\SOCKET.HPP
C:\SFML-2.2\INCLUDE\SFML\NETWORK\SOCKETHANDLE.HPP
C:\PROGRAM FILES (X86)\WINDOWS KITS\8.1\INCLUDE\SHARED\BASETSD.H
C:\SFML-2.2\INCLUDE\SFML\NETWORK\HTTP.HPP
C:\SFML-2.2\INCLUDE\SFML\NETWORK\IPADDRESS.HPP
C:\SFML-2.2\INCLUDE\SFML\NETWORK\PACKET.HPP
C:\SFML-2.2\INCLUDE\SFML\NETWORK\SOCKETSELECTOR.HPP
C:\SFML-2.2\INCLUDE\SFML\NETWORK\TCPLISTENER.HPP
C:\SFML-2.2\INCLUDE\SFML\NETWORK\UDPSOCKET.HPP
C:\USERS\CRISTIAN\DESKTOP\CPP_2D_GAME_PROGRAMMING\SIMPLERPG\SIMPLERPG\TILEMAP.H
C:\PROGRAM FILES (X86)\MICROSOFT VISUAL STUDIO 12.0\VC\INCLUDE\IOSTREAM
^C:\USERS\CRISTIAN\DESKTOP\CPP_2D_GAME_PROGRAMMING\SIMPLERPG\SIMPLERPG\GAME.CPP
C:\USERS\CRISTIAN\DESKTOP\CPP_2D_GAME_PROGRAMMING\SIMPLERPG\SIMPLERPG\GAME.H
C:\PROGRAM FILES (X86)\MICROSOFT VISUAL STUDIO 12.0\VC\INCLUDE\STRING
C:\PROGRAM FILES (X86)\MICROSOFT VISUAL STUDIO 12.0\VC\INCLUDE\ITERATOR
C:\PROGRAM FILES (X86)\MICROSOFT VISUAL STUDIO 12.0\VC\INCLUDE\ISTREAM
C:\PROGRAM FILES (X86)\MICROSOFT VISUAL STUDIO 12.0\VC\INCLUDE\OSTREAM
C:\PROGRAM FILES (X86)\MICROSOFT VISUAL STUDIO 12.0\VC\INCLUDE\IOS
C:\PROGRAM FILES (X86)\MICROSOFT VISUAL STUDIO 12.0\VC\INCLUDE\XLOCNUM
C:\PROGRAM FILES (X86)\MICROSOFT VISUAL STUDIO 12.0\VC\INCLUDE\CLIMITS
C:\PROGRAM FILES (X86)\MICROSOFT VISUAL STUDIO 12.0\VC\INCLUDE\YVALS.H
C:\PROGRAM FILES (X86)\MICROSOFT VISUAL STUDIO 12.0\VC\INCLUDE\XKEYCHECK.H
C:\PROGRAM FILES (X86)\MICROSOFT VISUAL STUDIO 12.0\VC\INCLUDE\CRTDEFS.H
C:\PROGRAM FILES (X86)\MICROSOFT VISUAL STUDIO 12.0\VC\INCLUDE\SAL.H
C:\PROGRAM FILES (X86)\MICROSOFT VISUAL STUDIO 12.0\VC\INCLUDE\CONCURRENCYSAL.H
C:\PROGRAM FILES (X86)\MICROSOFT VISUAL STUDIO 12.0\VC\INCLUDE\VADEFS.H
C:\PROGRAM FILES (X86)\MICROSOFT VISUAL STUDIO 12.0\VC\INCLUDE\USE_ANSI.H
C:\PROGRAM FILES (X86)\MICROSOFT VISUAL STUDIO 12.0\VC\INCLUDE\LIMITS.H
C:\PROGRAM FILES (X86)\MICROSOFT VISUAL STUDIO 12.0\VC\INCLUDE\CMATH
C:\PROGRAM FILES (X86)\MICROSOFT VISUAL STUDIO 12.0\VC\INCLUDE\MATH.H
C:\PROGRAM FILES (X86)\MICROSOFT VISUAL STUDIO 12.0\VC\INCLUDE\XTGMATH.H
C:\PROGRAM FILES (X86)\MICROSOFT VISUAL STUDIO 12.0\VC\INCLUDE\XTR1COMMON
C:\PROGRAM FILES (X86)\MICROSOFT VISUAL STUDIO 12.0\VC\INCLUDE\CSTDIO
C:\PROGRAM FILES (X86)\MICROSOFT VISUAL STUDIO 12.0\VC\INCLUDE\STDIO.H
C:\PROGRAM FILES (X86)\MICROSOFT VISUAL STUDIO 12.0\VC\INCLUDE\SWPRINTF.INL
C:\PROGRAM FILES (X86)\MICROSOFT VISUAL STUDIO 12.0\VC\INCLUDE\CSTDLIB
C:\PROGRAM FILES (X86)\MICROSOFT VISUAL STUDIO 12.0\VC\INCLUDE\STDLIB.H
C:\PROGRAM FILES (X86)\MICROSOFT VISUAL STUDIO 12.0\VC\INCLUDE\STREAMBUF
C:\PROGRAM FILES (X86)\MICROSOFT VISUAL STUDIO 12.0\VC\INCLUDE\XIOSBASE
C:\PROGRAM FILES (X86)\MICROSOFT VISUAL STUDIO 12.0\VC\INCLUDE\XLOCALE
C:\PROGRAM FILES (X86)\MICROSOFT VISUAL STUDIO 12.0\VC\INCLUDE\CSTRING
C:\PROGRAM FILES (X86)\MICROSOFT VISUAL STUDIO 12.0\VC\INCLUDE\STRING.H
C:\PROGRAM FILES (X86)\MICROSOFT VISUAL STUDIO 12.0\VC\INCLUDE\STDEXCEPT
C:\PROGRAM FILES (X86)\MICROSOFT VISUAL STUDIO 12.0\VC\INCLUDE\EXCEPTION
C:\PROGRAM FILES (X86)\MICROSOFT VISUAL STUDIO 12.0\VC\INCLUDE\XSTDDEF
C:\PROGRAM FILES (X86)\MICROSOFT VISUAL STUDIO 12.0\VC\INCLUDE\CSTDDEF
C:\PROGRAM FILES (X86)\MICROSOFT VISUAL STUDIO 12.0\VC\INCLUDE\STDDEF.H
C:\PROGRAM FILES (X86)\MICROSOFT VISUAL STUDIO 12.0\VC\INCLUDE\INITIALIZER_LIST
C:\PROGRAM FILES (X86)\MICROSOFT VISUAL STUDIO 12.0\VC\INCLUDE\EH.H
C:\PROGRAM FILES (X86)\MICROSOFT VISUAL STUDIO 12.0\VC\INCLUDE\MALLOC.H
C:\PROGRAM FILES (X86)\MICROSOFT VISUAL STUDIO 12.0\VC\INCLUDE\XSTRING
C:\PROGRAM FILES (X86)\MICROSOFT VISUAL STUDIO 12.0\VC\INCLUDE\XMEMORY0
C:\PROGRAM FILES (X86)\MICROSOFT VISUAL STUDIO 12.0\VC\INCLUDE\LIMITS
C:\PROGRAM FILES (X86)\MICROSOFT VISUAL STUDIO 12.0\VC\INCLUDE\YMATH.H
C:\PROGRAM FILES (X86)\MICROSOFT VISUAL STUDIO 12.0\VC\INCLUDE\CFLOAT
C:\PROGRAM FILES (X86)\MICROSOFT VISUAL STUDIO 12.0\VC\INCLUDE\FLOAT.H
C:\PROGRAM FILES (X86)\MICROSOFT VISUAL STUDIO 12.0\VC\INCLUDE\CRTWRN.H
C:\PROGRAM FILES (X86)\MICROSOFT VISUAL STUDIO 12.0\VC\INCLUDE\CWCHAR
C:\PROGRAM FILES (X86)\MICROSOFT VISUAL STUDIO 12.0\VC\INCLUDE\WCHAR.H
C:\PROGRAM FILES (X86)\MICROSOFT VISUAL STUDIO 12.0\VC\INCLUDE\WTIME.INL
C:\PROGRAM FILES (X86)\MICROSOFT VISUAL STUDIO 12.0\VC\INCLUDE\NEW
C:\PROGRAM FILES (X86)\MICROSOFT VISUAL STUDIO 12.0\VC\INCLUDE\XUTILITY
C:\PROGRAM FILES (X86)\MICROSOFT VISUAL STUDIO 12.0\VC\INCLUDE\UTILITY
C:\PROGRAM FILES (X86)\MICROSOFT VISUAL STUDIO 12.0\VC\INCLUDE\IOSFWD
C:\PROGRAM FILES (X86)\MICROSOFT VISUAL STUDIO 12.0\VC\INCLUDE\CRTDBG.H
C:\PROGRAM FILES (X86)\MICROSOFT VISUAL STUDIO 12.0\VC\INCLUDE\TYPE_TRAITS
C:\PROGRAM FILES (X86)\MICROSOFT VISUAL STUDIO 12.0\VC\INCLUDE\XREFWRAP
C:\PROGRAM FILES (X86)\MICROSOFT VISUAL STUDIO 12.0\VC\INCLUDE\XATOMIC0.H
C:\PROGRAM FILES (X86)\MICROSOFT VISUAL STUDIO 12.0\VC\INCLUDE\INTRIN.H
C:\PROGRAM FILES (X86)\MICROSOFT VISUAL STUDIO 12.0\VC\INCLUDE\SETJMP.H
C:\PROGRAM FILES (X86)\MICROSOFT VISUAL STUDIO 12.0\VC\INCLUDE\IMMINTRIN.H
C:\PROGRAM FILES (X86)\MICROSOFT VISUAL STUDIO 12.0\VC\INCLUDE\WMMINTRIN.H
C:\PROGRAM FILES (X86)\MICROSOFT VISUAL STUDIO 12.0\VC\INCLUDE\NMMINTRIN.H
C:\PROGRAM FILES (X86)\MICROSOFT VISUAL STUDIO 12.0\VC\INCLUDE\SMMINTRIN.H
C:\PROGRAM FILES (X86)\MICROSOFT VISUAL STUDIO 12.0\VC\INCLUDE\TMMINTRIN.H
C:\PROGRAM FILES (X86)\MICROSOFT VISUAL STUDIO 12.0\VC\INCLUDE\PMMINTRIN.H
C:\PROGRAM FILES (X86)\MICROSOFT VISUAL STUDIO 12.0\VC\INCLUDE\EMMINTRIN.H
C:\PROGRAM FILES (X86)\MICROSOFT VISUAL STUDIO 12.0\VC\INCLUDE\XMMINTRIN.H
C:\PROGRAM FILES (X86)\MICROSOFT VISUAL STUDIO 12.0\VC\INCLUDE\MMINTRIN.H
C:\PROGRAM FILES (X86)\MICROSOFT VISUAL STUDIO 12.0\VC\INCLUDE\AMMINTRIN.H
C:\PROGRAM FILES (X86)\MICROSOFT VISUAL STUDIO 12.0\VC\INCLUDE\TYPEINFO
C:\PROGRAM FILES (X86)\MICROSOFT VISUAL STUDIO 12.0\VC\INCLUDE\XLOCINFO
C:\PROGRAM FILES (X86)\MICROSOFT VISUAL STUDIO 12.0\VC\INCLUDE\XLOCINFO.H
C:\PROGRAM FILES (X86)\MICROSOFT VISUAL STUDIO 12.0\VC\INCLUDE\CTYPE.H
C:\PROGRAM FILES (X86)\MICROSOFT VISUAL STUDIO 12.0\VC\INCLUDE\LOCALE.H
C:\PROGRAM FILES (X86)\MICROSOFT VISUAL STUDIO 12.0\VC\INCLUDE\XDEBUG
C:\PROGRAM FILES (X86)\MICROSOFT VISUAL STUDIO 12.0\VC\INCLUDE\XFACET
C:\PROGRAM FILES (X86)\MICROSOFT VISUAL STUDIO 12.0\VC\INCLUDE\SYSTEM_ERROR
C:\PROGRAM FILES (X86)\MICROSOFT VISUAL STUDIO 12.0\VC\INCLUDE\CERRNO
C:\PROGRAM FILES (X86)\MICROSOFT VISUAL STUDIO 12.0\VC\INCLUDE\ERRNO.H
C:\PROGRAM FILES (X86)\MICROSOFT VISUAL STUDIO 12.0\VC\INCLUDE\SHARE.H
C:\PROGRAM FILES (X86)\MICROSOFT VISUAL STUDIO 12.0\VC\INCLUDE\THREAD
C:\PROGRAM FILES (X86)\MICROSOFT VISUAL STUDIO 12.0\VC\INCLUDE\FUNCTIONAL
C:\PROGRAM FILES (X86)\MICROSOFT VISUAL STUDIO 12.0\VC\INCLUDE\XFUNCTIONAL
C:\PROGRAM FILES (X86)\MICROSOFT VISUAL STUDIO 12.0\VC\INCLUDE\TUPLE
C:\PROGRAM FILES (X86)\MICROSOFT VISUAL STUDIO 12.0\VC\INCLUDE\CHRONO
C:\PROGRAM FILES (X86)\MICROSOFT VISUAL STUDIO 12.0\VC\INCLUDE\RATIO
C:\PROGRAM FILES (X86)\MICROSOFT VISUAL STUDIO 12.0\VC\INCLUDE\STDINT.H
C:\PROGRAM FILES (X86)\MICROSOFT VISUAL STUDIO 12.0\VC\INCLUDE\TIME.H
C:\PROGRAM FILES (X86)\MICROSOFT VISUAL STUDIO 12.0\VC\INCLUDE\TIME.INL
C:\PROGRAM FILES (X86)\MICROSOFT VISUAL STUDIO 12.0\VC\INCLUDE\THR\XTIMEC.H
C:\PROGRAM FILES (X86)\MICROSOFT VISUAL STUDIO 12.0\VC\INCLUDE\THR\XTHRCOMMON.H
C:\PROGRAM FILES (X86)\MICROSOFT VISUAL STUDIO 12.0\VC\INCLUDE\CONCRT.H
C:\PROGRAM FILES (X86)\WINDOWS KITS\8.1\INCLUDE\SHARED\GUIDDEF.H
C:\PROGRAM FILES (X86)\MICROSOFT VISUAL STUDIO 12.0\VC\INCLUDE\THR\XTHREAD
C:\PROGRAM FILES (X86)\MICROSOFT VISUAL STUDIO 12.0\VC\INCLUDE\THR\XTIME
C:\PROGRAM FILES (X86)\MICROSOFT VISUAL STUDIO 12.0\VC\INCLUDE\THR\XTHREADS.H
C:\USERS\CRISTIAN\DESKTOP\CPP_2D_GAME_PROGRAMMING\SIMPLERPG\SIMPLERPG\PLAYER.H
C:\USERS\CRISTIAN\DESKTOP\CPP_2D_GAME_PROGRAMMING\SIMPLERPG\SIMPLERPG\RIGIDBODY.H
C:\SFML-2.2\INCLUDE\SFML\GRAPHICS.HPP
C:\SFML-2.2\INCLUDE\SFML\WINDOW.HPP
C:\SFML-2.2\INCLUDE\SFML\SYSTEM.HPP
C:\SFML-2.2\INCLUDE\SFML\CONFIG.HPP
C:\SFML-2.2\INCLUDE\SFML\SYSTEM\CLOCK.HPP
C:\SFML-2.2\INCLUDE\SFML\SYSTEM\EXPORT.HPP
C:\SFML-2.2\INCLUDE\SFML\SYSTEM\TIME.HPP
C:\SFML-2.2\INCLUDE\SFML\SYSTEM\ERR.HPP
C:\SFML-2.2\INCLUDE\SFML\SYSTEM\INPUTSTREAM.HPP
C:\SFML-2.2\INCLUDE\SFML\SYSTEM\LOCK.HPP
C:\SFML-2.2\INCLUDE\SFML\SYSTEM\NONCOPYABLE.HPP
C:\SFML-2.2\INCLUDE\SFML\SYSTEM\MUTEX.HPP
C:\SFML-2.2\INCLUDE\SFML\SYSTEM\SLEEP.HPP
C:\SFML-2.2\INCLUDE\SFML\SYSTEM\STRING.HPP
C:\SFML-2.2\INCLUDE\SFML\SYSTEM\UTF.HPP
C:\PROGRAM FILES (X86)\MICROSOFT VISUAL STUDIO 12.0\VC\INCLUDE\ALGORITHM
C:\PROGRAM FILES (X86)\MICROSOFT VISUAL STUDIO 12.0\VC\INCLUDE\XMEMORY
C:\PROGRAM FILES (X86)\MICROSOFT VISUAL STUDIO 12.0\VC\INCLUDE\LOCALE
C:\PROGRAM FILES (X86)\MICROSOFT VISUAL STUDIO 12.0\VC\INCLUDE\XLOCBUF
C:\PROGRAM FILES (X86)\MICROSOFT VISUAL STUDIO 12.0\VC\INCLUDE\XLOCMES
C:\PROGRAM FILES (X86)\MICROSOFT VISUAL STUDIO 12.0\VC\INCLUDE\XLOCMON
C:\PROGRAM FILES (X86)\MICROSOFT VISUAL STUDIO 12.0\VC\INCLUDE\XLOCTIME
C:\PROGRAM FILES (X86)\MICROSOFT VISUAL STUDIO 12.0\VC\INCLUDE\CTIME
C:\SFML-2.2\INCLUDE\SFML\SYSTEM\UTF.INL
C:\SFML-2.2\INCLUDE\SFML\SYSTEM\STRING.INL
C:\SFML-2.2\INCLUDE\SFML\SYSTEM\THREAD.HPP
C:\SFML-2.2\INCLUDE\SFML\SYSTEM\THREAD.INL
C:\SFML-2.2\INCLUDE\SFML\SYSTEM\THREADLOCAL.HPP
C:\SFML-2.2\INCLUDE\SFML\SYSTEM\THREADLOCALPTR.HPP
C:\SFML-2.2\INCLUDE\SFML\SYSTEM\THREADLOCALPTR.INL
C:\SFML-2.2\INCLUDE\SFML\SYSTEM\VECTOR2.HPP
C:\SFML-2.2\INCLUDE\SFML\SYSTEM\VECTOR2.INL
C:\SFML-2.2\INCLUDE\SFML\SYSTEM\VECTOR3.HPP
C:\SFML-2.2\INCLUDE\SFML\SYSTEM\VECTOR3.INL
C:\SFML-2.2\INCLUDE\SFML\WINDOW\CONTEXT.HPP
C:\SFML-2.2\INCLUDE\SFML\WINDOW\EXPORT.HPP
C:\SFML-2.2\INCLUDE\SFML\WINDOW\GLRESOURCE.HPP
C:\SFML-2.2\INCLUDE\SFML\WINDOW\CONTEXTSETTINGS.HPP
C:\SFML-2.2\INCLUDE\SFML\WINDOW\EVENT.HPP
C:\SFML-2.2\INCLUDE\SFML\WINDOW\JOYSTICK.HPP
C:\SFML-2.2\INCLUDE\SFML\WINDOW\KEYBOARD.HPP
C:\SFML-2.2\INCLUDE\SFML\WINDOW\MOUSE.HPP
C:\SFML-2.2\INCLUDE\SFML\WINDOW\SENSOR.HPP
C:\SFML-2.2\INCLUDE\SFML\WINDOW\TOUCH.HPP
C:\SFML-2.2\INCLUDE\SFML\WINDOW\VIDEOMODE.HPP
C:\PROGRAM FILES (X86)\MICROSOFT VISUAL STUDIO 12.0\VC\INCLUDE\VECTOR
C:\SFML-2.2\INCLUDE\SFML\WINDOW\WINDOW.HPP
C:\SFML-2.2\INCLUDE\SFML\WINDOW\WINDOWHANDLE.HPP
C:\SFML-2.2\INCLUDE\SFML\WINDOW\WINDOWSTYLE.HPP
C:\SFML-2.2\INCLUDE\SFML\GRAPHICS\BLENDMODE.HPP
C:\SFML-2.2\INCLUDE\SFML\GRAPHICS\EXPORT.HPP
C:\SFML-2.2\INCLUDE\SFML\GRAPHICS\COLOR.HPP
C:\SFML-2.2\INCLUDE\SFML\GRAPHICS\FONT.HPP
C:\SFML-2.2\INCLUDE\SFML\GRAPHICS\GLYPH.HPP
C:\SFML-2.2\INCLUDE\SFML\GRAPHICS\RECT.HPP
C:\SFML-2.2\INCLUDE\SFML\GRAPHICS\RECT.INL
C:\SFML-2.2\INCLUDE\SFML\GRAPHICS\TEXTURE.HPP
C:\SFML-2.2\INCLUDE\SFML\GRAPHICS\IMAGE.HPP
C:\PROGRAM FILES (X86)\MICROSOFT VISUAL STUDIO 12.0\VC\INCLUDE\MAP
C:\PROGRAM FILES (X86)\MICROSOFT VISUAL STUDIO 12.0\VC\INCLUDE\XTREE
C:\SFML-2.2\INCLUDE\SFML\GRAPHICS\RENDERSTATES.HPP
C:\SFML-2.2\INCLUDE\SFML\GRAPHICS\TRANSFORM.HPP
C:\SFML-2.2\INCLUDE\SFML\GRAPHICS\RENDERTEXTURE.HPP
C:\SFML-2.2\INCLUDE\SFML\GRAPHICS\RENDERTARGET.HPP
C:\SFML-2.2\INCLUDE\SFML\GRAPHICS\VIEW.HPP
C:\SFML-2.2\INCLUDE\SFML\GRAPHICS\PRIMITIVETYPE.HPP
C:\SFML-2.2\INCLUDE\SFML\GRAPHICS\VERTEX.HPP
C:\SFML-2.2\INCLUDE\SFML\GRAPHICS\RENDERWINDOW.HPP
C:\SFML-2.2\INCLUDE\SFML\GRAPHICS\SHADER.HPP
C:\SFML-2.2\INCLUDE\SFML\GRAPHICS\SHAPE.HPP
C:\SFML-2.2\INCLUDE\SFML\GRAPHICS\DRAWABLE.HPP
C:\SFML-2.2\INCLUDE\SFML\GRAPHICS\TRANSFORMABLE.HPP
C:\SFML-2.2\INCLUDE\SFML\GRAPHICS\VERTEXARRAY.HPP
C:\SFML-2.2\INCLUDE\SFML\GRAPHICS\CIRCLESHAPE.HPP
C:\SFML-2.2\INCLUDE\SFML\GRAPHICS\RECTANGLESHAPE.HPP
C:\SFML-2.2\INCLUDE\SFML\GRAPHICS\CONVEXSHAPE.HPP
C:\SFML-2.2\INCLUDE\SFML\GRAPHICS\SPRITE.HPP
C:\SFML-2.2\INCLUDE\SFML\GRAPHICS\TEXT.HPP
C:\USERS\CRISTIAN\DESKTOP\CPP_2D_GAME_PROGRAMMING\SIMPLERPG\SIMPLERPG\COMMON.H
C:\USERS\CRISTIAN\DESKTOP\CPP_2D_GAME_PROGRAMMING\SIMPLERPG\SIMPLERPG\NETWORKING.H
C:\SFML-2.2\INCLUDE\SFML\NETWORK.HPP
C:\SFML-2.2\INCLUDE\SFML\NETWORK\FTP.HPP
C:\SFML-2.2\INCLUDE\SFML\NETWORK\EXPORT.HPP
C:\SFML-2.2\INCLUDE\SFML\NETWORK\TCPSOCKET.HPP
C:\SFML-2.2\INCLUDE\SFML\NETWORK\SOCKET.HPP
C:\SFML-2.2\INCLUDE\SFML\NETWORK\SOCKETHANDLE.HPP
C:\PROGRAM FILES (X86)\WINDOWS KITS\8.1\INCLUDE\SHARED\BASETSD.H
C:\SFML-2.2\INCLUDE\SFML\NETWORK\HTTP.HPP
C:\SFML-2.2\INCLUDE\SFML\NETWORK\IPADDRESS.HPP
C:\SFML-2.2\INCLUDE\SFML\NETWORK\PACKET.HPP
C:\SFML-2.2\INCLUDE\SFML\NETWORK\SOCKETSELECTOR.HPP
C:\SFML-2.2\INCLUDE\SFML\NETWORK\TCPLISTENER.HPP
C:\SFML-2.2\INCLUDE\SFML\NETWORK\UDPSOCKET.HPP
C:\USERS\CRISTIAN\DESKTOP\CPP_2D_GAME_PROGRAMMING\SIMPLERPG\SIMPLERPG\TILEMAP.H
C:\PROGRAM FILES (X86)\MICROSOFT VISUAL STUDIO 12.0\VC\INCLUDE\IOSTREAM
C:\PROGRAM FILES (X86)\WINDOWS KITS\8.1\INCLUDE\UM\WINDOWS.H
C:\PROGRAM FILES (X86)\WINDOWS KITS\8.1\INCLUDE\SHARED\WINAPIFAMILY.H
C:\PROGRAM FILES (X86)\WINDOWS KITS\8.1\INCLUDE\SHARED\SDKDDKVER.H
C:\PROGRAM FILES (X86)\MICROSOFT VISUAL STUDIO 12.0\VC\INCLUDE\EXCPT.H
C:\PROGRAM FILES (X86)\MICROSOFT VISUAL STUDIO 12.0\VC\INCLUDE\STDARG.H
C:\PROGRAM FILES (X86)\WINDOWS KITS\8.1\INCLUDE\SHARED\WINDEF.H
C:\PROGRAM FILES (X86)\WINDOWS KITS\8.1\INCLUDE\SHARED\MINWINDEF.H
C:\PROGRAM FILES (X86)\WINDOWS KITS\8.1\INCLUDE\SHARED\SPECSTRINGS.H
C:\PROGRAM FILES (X86)\WINDOWS KITS\8.1\INCLUDE\SHARED\SPECSTRINGS_STRICT.H
C:\PROGRAM FILES (X86)\WINDOWS KITS\8.1\INCLUDE\SHARED\SPECSTRINGS_UNDEF.H
C:\PROGRAM FILES (X86)\WINDOWS KITS\8.1\INCLUDE\SHARED\DRIVERSPECS.H
C:\PROGRAM FILES (X86)\WINDOWS KITS\8.1\INCLUDE\SHARED\SDV_DRIVERSPECS.H
C:\PROGRAM FILES (X86)\WINDOWS KITS\8.1\INCLUDE\UM\WINNT.H
C:\PROGRAM FILES (X86)\WINDOWS KITS\8.1\INCLUDE\SHARED\KERNELSPECS.H
C:\PROGRAM FILES (X86)\WINDOWS KITS\8.1\INCLUDE\SHARED\PSHPACK4.H
C:\PROGRAM FILES (X86)\WINDOWS KITS\8.1\INCLUDE\SHARED\POPPACK.H
C:\PROGRAM FILES (X86)\WINDOWS KITS\8.1\INCLUDE\SHARED\PSHPACK2.H
C:\PROGRAM FILES (X86)\WINDOWS KITS\8.1\INCLUDE\SHARED\PSHPACK8.H
C:\PROGRAM FILES (X86)\WINDOWS KITS\8.1\INCLUDE\SHARED\APISET.H
C:\PROGRAM FILES (X86)\WINDOWS KITS\8.1\INCLUDE\SHARED\KTMTYPES.H
C:\PROGRAM FILES (X86)\WINDOWS KITS\8.1\INCLUDE\UM\WINBASE.H
C:\PROGRAM FILES (X86)\WINDOWS KITS\8.1\INCLUDE\SHARED\APISETCCONV.H
C:\PROGRAM FILES (X86)\WINDOWS KITS\8.1\INCLUDE\UM\MINWINBASE.H
C:\PROGRAM FILES (X86)\WINDOWS KITS\8.1\INCLUDE\UM\PROCESSENV.H
C:\PROGRAM FILES (X86)\WINDOWS KITS\8.1\INCLUDE\UM\FILEAPI.H
C:\PROGRAM FILES (X86)\WINDOWS KITS\8.1\INCLUDE\UM\DEBUGAPI.H
C:\PROGRAM FILES (X86)\WINDOWS KITS\8.1\INCLUDE\UM\UTILAPISET.H
C:\PROGRAM FILES (X86)\WINDOWS KITS\8.1\INCLUDE\UM\HANDLEAPI.H
C:\PROGRAM FILES (X86)\WINDOWS KITS\8.1\INCLUDE\UM\ERRHANDLINGAPI.H
C:\PROGRAM FILES (X86)\WINDOWS KITS\8.1\INCLUDE\UM\FIBERSAPI.H
C:\PROGRAM FILES (X86)\WINDOWS KITS\8.1\INCLUDE\UM\NAMEDPIPEAPI.H
C:\PROGRAM FILES (X86)\WINDOWS KITS\8.1\INCLUDE\UM\PROFILEAPI.H
C:\PROGRAM FILES (X86)\WINDOWS KITS\8.1\INCLUDE\UM\HEAPAPI.H
C:\PROGRAM FILES (X86)\WINDOWS KITS\8.1\INCLUDE\UM\IOAPISET.H
C:\PROGRAM FILES (X86)\WINDOWS KITS\8.1\INCLUDE\UM\SYNCHAPI.H
C:\PROGRAM FILES (X86)\WINDOWS KITS\8.1\INCLUDE\UM\INTERLOCKEDAPI.H
C:\PROGRAM FILES (X86)\WINDOWS KITS\8.1\INCLUDE\UM\PROCESSTHREADSAPI.H
C:\PROGRAM FILES (X86)\WINDOWS KITS\8.1\INCLUDE\UM\SYSINFOAPI.H
C:\PROGRAM FILES (X86)\WINDOWS KITS\8.1\INCLUDE\UM\MEMORYAPI.H
C:\PROGRAM FILES (X86)\WINDOWS KITS\8.1\INCLUDE\UM\THREADPOOLLEGACYAPISET.H
C:\PROGRAM FILES (X86)\WINDOWS KITS\8.1\INCLUDE\UM\THREADPOOLAPISET.H
C:\PROGRAM FILES (X86)\WINDOWS KITS\8.1\INCLUDE\UM\BEMAPISET.H
C:\PROGRAM FILES (X86)\WINDOWS KITS\8.1\INCLUDE\UM\JOBAPI.H
C:\PROGRAM FILES (X86)\WINDOWS KITS\8.1\INCLUDE\UM\WOW64APISET.H
C:\PROGRAM FILES (X86)\WINDOWS KITS\8.1\INCLUDE\UM\LIBLOADERAPI.H
C:\PROGRAM FILES (X86)\WINDOWS KITS\8.1\INCLUDE\UM\SECURITYBASEAPI.H
C:\PROGRAM FILES (X86)\WINDOWS KITS\8.1\INCLUDE\UM\NAMESPACEAPI.H
C:\PROGRAM FILES (X86)\WINDOWS KITS\8.1\INCLUDE\UM\SYSTEMTOPOLOGYAPI.H
C:\PROGRAM FILES (X86)\WINDOWS KITS\8.1\INCLUDE\UM\PROCESSTOPOLOGYAPI.H
C:\PROGRAM FILES (X86)\WINDOWS KITS\8.1\INCLUDE\UM\SECURITYAPPCONTAINER.H
C:\PROGRAM FILES (X86)\WINDOWS KITS\8.1\INCLUDE\UM\REALTIMEAPISET.H
C:\PROGRAM FILES (X86)\WINDOWS KITS\8.1\INCLUDE\SHARED\WINERROR.H
C:\PROGRAM FILES (X86)\WINDOWS KITS\8.1\INCLUDE\UM\TIMEZONEAPI.H
C:\PROGRAM FILES (X86)\WINDOWS KITS\8.1\INCLUDE\UM\WINGDI.H
C:\PROGRAM FILES (X86)\WINDOWS KITS\8.1\INCLUDE\SHARED\PSHPACK1.H
C:\PROGRAM FILES (X86)\WINDOWS KITS\8.1\INCLUDE\UM\WINUSER.H
C:\PROGRAM FILES (X86)\WINDOWS KITS\8.1\INCLUDE\SHARED\TVOUT.H
C:\PROGRAM FILES (X86)\WINDOWS KITS\8.1\INCLUDE\UM\WINNLS.H
C:\PROGRAM FILES (X86)\WINDOWS KITS\8.1\INCLUDE\UM\DATETIMEAPI.H
C:\PROGRAM FILES (X86)\WINDOWS KITS\8.1\INCLUDE\UM\STRINGAPISET.H
C:\PROGRAM FILES (X86)\WINDOWS KITS\8.1\INCLUDE\UM\WINCON.H
C:\PROGRAM FILES (X86)\WINDOWS KITS\8.1\INCLUDE\UM\CONSOLEAPI.H
C:\PROGRAM FILES (X86)\WINDOWS KITS\8.1\INCLUDE\UM\WINVER.H
C:\PROGRAM FILES (X86)\WINDOWS KITS\8.1\INCLUDE\UM\VERRSRC.H
C:\PROGRAM FILES (X86)\WINDOWS KITS\8.1\INCLUDE\UM\WINREG.H
C:\PROGRAM FILES (X86)\WINDOWS KITS\8.1\INCLUDE\UM\REASON.H
C:\PROGRAM FILES (X86)\WINDOWS KITS\8.1\INCLUDE\UM\WINNETWK.H
C:\PROGRAM FILES (X86)\WINDOWS KITS\8.1\INCLUDE\SHARED\WNNC.H
C:\PROGRAM FILES (X86)\WINDOWS KITS\8.1\INCLUDE\SHARED\CDERR.H
C:\PROGRAM FILES (X86)\WINDOWS KITS\8.1\INCLUDE\UM\DDE.H
C:\PROGRAM FILES (X86)\WINDOWS KITS\8.1\INCLUDE\UM\DDEML.H
C:\PROGRAM FILES (X86)\WINDOWS KITS\8.1\INCLUDE\UM\DLGS.H
C:\PROGRAM FILES (X86)\WINDOWS KITS\8.1\INCLUDE\UM\LZEXPAND.H
C:\PROGRAM FILES (X86)\WINDOWS KITS\8.1\INCLUDE\UM\MMSYSTEM.H
C:\PROGRAM FILES (X86)\WINDOWS KITS\8.1\INCLUDE\UM\MMSYSCOM.H
C:\PROGRAM FILES (X86)\WINDOWS KITS\8.1\INCLUDE\UM\MCIAPI.H
C:\PROGRAM FILES (X86)\WINDOWS KITS\8.1\INCLUDE\UM\MMISCAPI.H
C:\PROGRAM FILES (X86)\WINDOWS KITS\8.1\INCLUDE\UM\MMISCAPI2.H
C:\PROGRAM FILES (X86)\WINDOWS KITS\8.1\INCLUDE\UM\PLAYSOUNDAPI.H
C:\PROGRAM FILES (X86)\WINDOWS KITS\8.1\INCLUDE\UM\MMEAPI.H
C:\PROGRAM FILES (X86)\WINDOWS KITS\8.1\INCLUDE\UM\TIMEAPI.H
C:\PROGRAM FILES (X86)\WINDOWS KITS\8.1\INCLUDE\UM\JOYSTICKAPI.H
C:\PROGRAM FILES (X86)\WINDOWS KITS\8.1\INCLUDE\UM\NB30.H
C:\PROGRAM FILES (X86)\WINDOWS KITS\8.1\INCLUDE\SHARED\RPC.H
C:\PROGRAM FILES (X86)\WINDOWS KITS\8.1\INCLUDE\SHARED\RPCDCE.H
C:\PROGRAM FILES (X86)\WINDOWS KITS\8.1\INCLUDE\SHARED\RPCDCEP.H
C:\PROGRAM FILES (X86)\WINDOWS KITS\8.1\INCLUDE\UM\RPCNSI.H
C:\PROGRAM FILES (X86)\WINDOWS KITS\8.1\INCLUDE\SHARED\RPCNTERR.H
C:\PROGRAM FILES (X86)\WINDOWS KITS\8.1\INCLUDE\SHARED\RPCASYNC.H
C:\PROGRAM FILES (X86)\WINDOWS KITS\8.1\INCLUDE\UM\SHELLAPI.H
C:\PROGRAM FILES (X86)\WINDOWS KITS\8.1\INCLUDE\UM\WINPERF.H
C:\PROGRAM FILES (X86)\WINDOWS KITS\8.1\INCLUDE\UM\WINSOCK.H
C:\PROGRAM FILES (X86)\WINDOWS KITS\8.1\INCLUDE\SHARED\INADDR.H
C:\PROGRAM FILES (X86)\WINDOWS KITS\8.1\INCLUDE\UM\WINCRYPT.H
C:\PROGRAM FILES (X86)\WINDOWS KITS\8.1\INCLUDE\SHARED\BCRYPT.H
C:\PROGRAM FILES (X86)\WINDOWS KITS\8.1\INCLUDE\UM\NCRYPT.H
C:\PROGRAM FILES (X86)\WINDOWS KITS\8.1\INCLUDE\UM\DPAPI.H
C:\PROGRAM FILES (X86)\WINDOWS KITS\8.1\INCLUDE\UM\WINEFS.H
C:\PROGRAM FILES (X86)\WINDOWS KITS\8.1\INCLUDE\UM\WINSCARD.H
C:\PROGRAM FILES (X86)\WINDOWS KITS\8.1\INCLUDE\SHARED\WTYPES.H
C:\PROGRAM FILES (X86)\WINDOWS KITS\8.1\INCLUDE\SHARED\RPCNDR.H
C:\PROGRAM FILES (X86)\WINDOWS KITS\8.1\INCLUDE\UM\RPCNSIP.H
C:\PROGRAM FILES (X86)\WINDOWS KITS\8.1\INCLUDE\SHARED\RPCSAL.H
C:\PROGRAM FILES (X86)\WINDOWS KITS\8.1\INCLUDE\SHARED\WTYPESBASE.H
C:\PROGRAM FILES (X86)\WINDOWS KITS\8.1\INCLUDE\UM\WINIOCTL.H
C:\PROGRAM FILES (X86)\WINDOWS KITS\8.1\INCLUDE\SHARED\WINSMCRD.H
C:\PROGRAM FILES (X86)\WINDOWS KITS\8.1\INCLUDE\UM\WINSPOOL.H
C:\PROGRAM FILES (X86)\WINDOWS KITS\8.1\INCLUDE\UM\PRSHT.H
C:\PROGRAM FILES (X86)\WINDOWS KITS\8.1\INCLUDE\UM\OLE2.H
C:\PROGRAM FILES (X86)\WINDOWS KITS\8.1\INCLUDE\UM\OBJBASE.H
C:\PROGRAM FILES (X86)\WINDOWS KITS\8.1\INCLUDE\UM\COMBASEAPI.H
C:\PROGRAM FILES (X86)\WINDOWS KITS\8.1\INCLUDE\UM\UNKNWNBASE.H
C:\PROGRAM FILES (X86)\WINDOWS KITS\8.1\INCLUDE\UM\OBJIDLBASE.H
C:\PROGRAM FILES (X86)\WINDOWS KITS\8.1\INCLUDE\UM\CGUID.H
C:\PROGRAM FILES (X86)\WINDOWS KITS\8.1\INCLUDE\UM\OBJIDL.H
C:\PROGRAM FILES (X86)\WINDOWS KITS\8.1\INCLUDE\UM\UNKNWN.H
C:\PROGRAM FILES (X86)\WINDOWS KITS\8.1\INCLUDE\UM\URLMON.H
C:\PROGRAM FILES (X86)\WINDOWS KITS\8.1\INCLUDE\UM\OLEIDL.H
C:\PROGRAM FILES (X86)\WINDOWS KITS\8.1\INCLUDE\UM\SERVPROV.H
C:\PROGRAM FILES (X86)\WINDOWS KITS\8.1\INCLUDE\UM\MSXML.H
C:\PROGRAM FILES (X86)\WINDOWS KITS\8.1\INCLUDE\UM\OAIDL.H
C:\PROGRAM FILES (X86)\WINDOWS KITS\8.1\INCLUDE\UM\PROPIDL.H
C:\PROGRAM FILES (X86)\WINDOWS KITS\8.1\INCLUDE\UM\OLEAUTO.H
C:\PROGRAM FILES (X86)\WINDOWS KITS\8.1\INCLUDE\UM\COMMDLG.H
C:\PROGRAM FILES (X86)\WINDOWS KITS\8.1\INCLUDE\SHARED\STRALIGN.H
C:\PROGRAM FILES (X86)\WINDOWS KITS\8.1\INCLUDE\UM\WINSVC.H
C:\PROGRAM FILES (X86)\WINDOWS KITS\8.1\INCLUDE\UM\MCX.H
C:\PROGRAM FILES (X86)\WINDOWS KITS\8.1\INCLUDE\UM\IMM.H
C:\PROGRAM FILES (X86)\WINDOWS KITS\8.1\INCLUDE\UM\IME_CMODES.H
^C:\USERS\CRISTIAN\DESKTOP\CPP_2D_GAME_PROGRAMMING\SIMPLERPG\SIMPLERPG\NETWORKING.CPP
C:\PROGRAM FILES (X86)\MICROSOFT VISUAL STUDIO 12.0\VC\BIN\X86_AMD64\1033\CLUI.DLL
C:\WINDOWS\GLOBALIZATION\SORTING\SORTDEFAULT.NLS
C:\WINDOWS\SYSTEM32\TZRES.DLL
C:\USERS\CRISTIAN\DESKTOP\CPP_2D_GAME_PROGRAMMING\SIMPLERPG\SIMPLERPG\NETWORKING.H
C:\SFML-2.2\INCLUDE\SFML\NETWORK.HPP
C:\SFML-2.2\INCLUDE\SFML\SYSTEM.HPP
C:\SFML-2.2\INCLUDE\SFML\CONFIG.HPP
C:\SFML-2.2\INCLUDE\SFML\SYSTEM\CLOCK.HPP
C:\SFML-2.2\INCLUDE\SFML\SYSTEM\EXPORT.HPP
C:\SFML-2.2\INCLUDE\SFML\SYSTEM\TIME.HPP
C:\SFML-2.2\INCLUDE\SFML\SYSTEM\ERR.HPP
C:\PROGRAM FILES (X86)\MICROSOFT VISUAL STUDIO 12.0\VC\INCLUDE\OSTREAM
C:\PROGRAM FILES (X86)\MICROSOFT VISUAL STUDIO 12.0\VC\INCLUDE\IOS
C:\PROGRAM FILES (X86)\MICROSOFT VISUAL STUDIO 12.0\VC\INCLUDE\XLOCNUM
C:\PROGRAM FILES (X86)\MICROSOFT VISUAL STUDIO 12.0\VC\INCLUDE\CLIMITS
C:\PROGRAM FILES (X86)\MICROSOFT VISUAL STUDIO 12.0\VC\INCLUDE\YVALS.H
C:\PROGRAM FILES (X86)\MICROSOFT VISUAL STUDIO 12.0\VC\INCLUDE\XKEYCHECK.H
C:\PROGRAM FILES (X86)\MICROSOFT VISUAL STUDIO 12.0\VC\INCLUDE\CRTDEFS.H
C:\PROGRAM FILES (X86)\MICROSOFT VISUAL STUDIO 12.0\VC\INCLUDE\SAL.H
C:\PROGRAM FILES (X86)\MICROSOFT VISUAL STUDIO 12.0\VC\INCLUDE\CONCURRENCYSAL.H
C:\PROGRAM FILES (X86)\MICROSOFT VISUAL STUDIO 12.0\VC\INCLUDE\VADEFS.H
C:\PROGRAM FILES (X86)\MICROSOFT VISUAL STUDIO 12.0\VC\INCLUDE\USE_ANSI.H
C:\PROGRAM FILES (X86)\MICROSOFT VISUAL STUDIO 12.0\VC\INCLUDE\LIMITS.H
C:\PROGRAM FILES (X86)\MICROSOFT VISUAL STUDIO 12.0\VC\INCLUDE\CMATH
C:\PROGRAM FILES (X86)\MICROSOFT VISUAL STUDIO 12.0\VC\INCLUDE\MATH.H
C:\PROGRAM FILES (X86)\MICROSOFT VISUAL STUDIO 12.0\VC\INCLUDE\XTGMATH.H
C:\PROGRAM FILES (X86)\MICROSOFT VISUAL STUDIO 12.0\VC\INCLUDE\XTR1COMMON
C:\PROGRAM FILES (X86)\MICROSOFT VISUAL STUDIO 12.0\VC\INCLUDE\CSTDIO
C:\PROGRAM FILES (X86)\MICROSOFT VISUAL STUDIO 12.0\VC\INCLUDE\STDIO.H
C:\PROGRAM FILES (X86)\MICROSOFT VISUAL STUDIO 12.0\VC\INCLUDE\SWPRINTF.INL
C:\PROGRAM FILES (X86)\MICROSOFT VISUAL STUDIO 12.0\VC\INCLUDE\CSTDLIB
C:\PROGRAM FILES (X86)\MICROSOFT VISUAL STUDIO 12.0\VC\INCLUDE\STDLIB.H
C:\PROGRAM FILES (X86)\MICROSOFT VISUAL STUDIO 12.0\VC\INCLUDE\STREAMBUF
C:\PROGRAM FILES (X86)\MICROSOFT VISUAL STUDIO 12.0\VC\INCLUDE\XIOSBASE
C:\PROGRAM FILES (X86)\MICROSOFT VISUAL STUDIO 12.0\VC\INCLUDE\XLOCALE
C:\PROGRAM FILES (X86)\MICROSOFT VISUAL STUDIO 12.0\VC\INCLUDE\CSTRING
C:\PROGRAM FILES (X86)\MICROSOFT VISUAL STUDIO 12.0\VC\INCLUDE\STRING.H
C:\PROGRAM FILES (X86)\MICROSOFT VISUAL STUDIO 12.0\VC\INCLUDE\STDEXCEPT
C:\PROGRAM FILES (X86)\MICROSOFT VISUAL STUDIO 12.0\VC\INCLUDE\EXCEPTION
C:\PROGRAM FILES (X86)\MICROSOFT VISUAL STUDIO 12.0\VC\INCLUDE\XSTDDEF
C:\PROGRAM FILES (X86)\MICROSOFT VISUAL STUDIO 12.0\VC\INCLUDE\CSTDDEF
C:\PROGRAM FILES (X86)\MICROSOFT VISUAL STUDIO 12.0\VC\INCLUDE\STDDEF.H
C:\PROGRAM FILES (X86)\MICROSOFT VISUAL STUDIO 12.0\VC\INCLUDE\INITIALIZER_LIST
C:\PROGRAM FILES (X86)\MICROSOFT VISUAL STUDIO 12.0\VC\INCLUDE\EH.H
C:\PROGRAM FILES (X86)\MICROSOFT VISUAL STUDIO 12.0\VC\INCLUDE\MALLOC.H
C:\PROGRAM FILES (X86)\MICROSOFT VISUAL STUDIO 12.0\VC\INCLUDE\XSTRING
C:\PROGRAM FILES (X86)\MICROSOFT VISUAL STUDIO 12.0\VC\INCLUDE\XMEMORY0
C:\PROGRAM FILES (X86)\MICROSOFT VISUAL STUDIO 12.0\VC\INCLUDE\LIMITS
C:\PROGRAM FILES (X86)\MICROSOFT VISUAL STUDIO 12.0\VC\INCLUDE\YMATH.H
C:\PROGRAM FILES (X86)\MICROSOFT VISUAL STUDIO 12.0\VC\INCLUDE\CFLOAT
C:\PROGRAM FILES (X86)\MICROSOFT VISUAL STUDIO 12.0\VC\INCLUDE\FLOAT.H
C:\PROGRAM FILES (X86)\MICROSOFT VISUAL STUDIO 12.0\VC\INCLUDE\CRTWRN.H
C:\PROGRAM FILES (X86)\MICROSOFT VISUAL STUDIO 12.0\VC\INCLUDE\CWCHAR
C:\PROGRAM FILES (X86)\MICROSOFT VISUAL STUDIO 12.0\VC\INCLUDE\WCHAR.H
C:\PROGRAM FILES (X86)\MICROSOFT VISUAL STUDIO 12.0\VC\INCLUDE\WTIME.INL
C:\PROGRAM FILES (X86)\MICROSOFT VISUAL STUDIO 12.0\VC\INCLUDE\NEW
C:\PROGRAM FILES (X86)\MICROSOFT VISUAL STUDIO 12.0\VC\INCLUDE\XUTILITY
C:\PROGRAM FILES (X86)\MICROSOFT VISUAL STUDIO 12.0\VC\INCLUDE\UTILITY
C:\PROGRAM FILES (X86)\MICROSOFT VISUAL STUDIO 12.0\VC\INCLUDE\IOSFWD
C:\PROGRAM FILES (X86)\MICROSOFT VISUAL STUDIO 12.0\VC\INCLUDE\CRTDBG.H
C:\PROGRAM FILES (X86)\MICROSOFT VISUAL STUDIO 12.0\VC\INCLUDE\TYPE_TRAITS
C:\PROGRAM FILES (X86)\MICROSOFT VISUAL STUDIO 12.0\VC\INCLUDE\XREFWRAP
C:\PROGRAM FILES (X86)\MICROSOFT VISUAL STUDIO 12.0\VC\INCLUDE\XATOMIC0.H
C:\PROGRAM FILES (X86)\MICROSOFT VISUAL STUDIO 12.0\VC\INCLUDE\INTRIN.H
C:\PROGRAM FILES (X86)\MICROSOFT VISUAL STUDIO 12.0\VC\INCLUDE\SETJMP.H
C:\PROGRAM FILES (X86)\MICROSOFT VISUAL STUDIO 12.0\VC\INCLUDE\IMMINTRIN.H
C:\PROGRAM FILES (X86)\MICROSOFT VISUAL STUDIO 12.0\VC\INCLUDE\WMMINTRIN.H
C:\PROGRAM FILES (X86)\MICROSOFT VISUAL STUDIO 12.0\VC\INCLUDE\NMMINTRIN.H
C:\PROGRAM FILES (X86)\MICROSOFT VISUAL STUDIO 12.0\VC\INCLUDE\SMMINTRIN.H
C:\PROGRAM FILES (X86)\MICROSOFT VISUAL STUDIO 12.0\VC\INCLUDE\TMMINTRIN.H
C:\PROGRAM FILES (X86)\MICROSOFT VISUAL STUDIO 12.0\VC\INCLUDE\PMMINTRIN.H
C:\PROGRAM FILES (X86)\MICROSOFT VISUAL STUDIO 12.0\VC\INCLUDE\EMMINTRIN.H
C:\PROGRAM FILES (X86)\MICROSOFT VISUAL STUDIO 12.0\VC\INCLUDE\XMMINTRIN.H
C:\PROGRAM FILES (X86)\MICROSOFT VISUAL STUDIO 12.0\VC\INCLUDE\MMINTRIN.H
C:\PROGRAM FILES (X86)\MICROSOFT VISUAL STUDIO 12.0\VC\INCLUDE\AMMINTRIN.H
C:\PROGRAM FILES (X86)\MICROSOFT VISUAL STUDIO 12.0\VC\INCLUDE\TYPEINFO
C:\PROGRAM FILES (X86)\MICROSOFT VISUAL STUDIO 12.0\VC\INCLUDE\XLOCINFO
C:\PROGRAM FILES (X86)\MICROSOFT VISUAL STUDIO 12.0\VC\INCLUDE\XLOCINFO.H
C:\PROGRAM FILES (X86)\MICROSOFT VISUAL STUDIO 12.0\VC\INCLUDE\CTYPE.H
C:\PROGRAM FILES (X86)\MICROSOFT VISUAL STUDIO 12.0\VC\INCLUDE\LOCALE.H
C:\PROGRAM FILES (X86)\MICROSOFT VISUAL STUDIO 12.0\VC\INCLUDE\XDEBUG
C:\PROGRAM FILES (X86)\MICROSOFT VISUAL STUDIO 12.0\VC\INCLUDE\XFACET
C:\PROGRAM FILES (X86)\MICROSOFT VISUAL STUDIO 12.0\VC\INCLUDE\SYSTEM_ERROR
C:\PROGRAM FILES (X86)\MICROSOFT VISUAL STUDIO 12.0\VC\INCLUDE\CERRNO
C:\PROGRAM FILES (X86)\MICROSOFT VISUAL STUDIO 12.0\VC\INCLUDE\ERRNO.H
C:\PROGRAM FILES (X86)\MICROSOFT VISUAL STUDIO 12.0\VC\INCLUDE\SHARE.H
C:\SFML-2.2\INCLUDE\SFML\SYSTEM\INPUTSTREAM.HPP
C:\SFML-2.2\INCLUDE\SFML\SYSTEM\LOCK.HPP
C:\SFML-2.2\INCLUDE\SFML\SYSTEM\NONCOPYABLE.HPP
C:\SFML-2.2\INCLUDE\SFML\SYSTEM\MUTEX.HPP
C:\SFML-2.2\INCLUDE\SFML\SYSTEM\SLEEP.HPP
C:\SFML-2.2\INCLUDE\SFML\SYSTEM\STRING.HPP
C:\SFML-2.2\INCLUDE\SFML\SYSTEM\UTF.HPP
C:\PROGRAM FILES (X86)\MICROSOFT VISUAL STUDIO 12.0\VC\INCLUDE\ALGORITHM
C:\PROGRAM FILES (X86)\MICROSOFT VISUAL STUDIO 12.0\VC\INCLUDE\XMEMORY
C:\PROGRAM FILES (X86)\MICROSOFT VISUAL STUDIO 12.0\VC\INCLUDE\LOCALE
C:\PROGRAM FILES (X86)\MICROSOFT VISUAL STUDIO 12.0\VC\INCLUDE\STRING
C:\PROGRAM FILES (X86)\MICROSOFT VISUAL STUDIO 12.0\VC\INCLUDE\ITERATOR
C:\PROGRAM FILES (X86)\MICROSOFT VISUAL STUDIO 12.0\VC\INCLUDE\ISTREAM
C:\PROGRAM FILES (X86)\MICROSOFT VISUAL STUDIO 12.0\VC\INCLUDE\XLOCBUF
C:\PROGRAM FILES (X86)\MICROSOFT VISUAL STUDIO 12.0\VC\INCLUDE\XLOCMES
C:\PROGRAM FILES (X86)\MICROSOFT VISUAL STUDIO 12.0\VC\INCLUDE\XLOCMON
C:\PROGRAM FILES (X86)\MICROSOFT VISUAL STUDIO 12.0\VC\INCLUDE\XLOCTIME
C:\PROGRAM FILES (X86)\MICROSOFT VISUAL STUDIO 12.0\VC\INCLUDE\CTIME
C:\PROGRAM FILES (X86)\MICROSOFT VISUAL STUDIO 12.0\VC\INCLUDE\TIME.H
C:\PROGRAM FILES (X86)\MICROSOFT VISUAL STUDIO 12.0\VC\INCLUDE\TIME.INL
C:\SFML-2.2\INCLUDE\SFML\SYSTEM\UTF.INL
C:\SFML-2.2\INCLUDE\SFML\SYSTEM\STRING.INL
C:\SFML-2.2\INCLUDE\SFML\SYSTEM\THREAD.HPP
C:\SFML-2.2\INCLUDE\SFML\SYSTEM\THREAD.INL
C:\SFML-2.2\INCLUDE\SFML\SYSTEM\THREADLOCAL.HPP
C:\SFML-2.2\INCLUDE\SFML\SYSTEM\THREADLOCALPTR.HPP
C:\SFML-2.2\INCLUDE\SFML\SYSTEM\THREADLOCALPTR.INL
C:\SFML-2.2\INCLUDE\SFML\SYSTEM\VECTOR2.HPP
C:\SFML-2.2\INCLUDE\SFML\SYSTEM\VECTOR2.INL
C:\SFML-2.2\INCLUDE\SFML\SYSTEM\VECTOR3.HPP
C:\SFML-2.2\INCLUDE\SFML\SYSTEM\VECTOR3.INL
C:\SFML-2.2\INCLUDE\SFML\NETWORK\FTP.HPP
C:\SFML-2.2\INCLUDE\SFML\NETWORK\EXPORT.HPP
C:\SFML-2.2\INCLUDE\SFML\NETWORK\TCPSOCKET.HPP
C:\SFML-2.2\INCLUDE\SFML\NETWORK\SOCKET.HPP
C:\SFML-2.2\INCLUDE\SFML\NETWORK\SOCKETHANDLE.HPP
C:\PROGRAM FILES (X86)\WINDOWS KITS\8.1\INCLUDE\SHARED\BASETSD.H
C:\PROGRAM FILES (X86)\MICROSOFT VISUAL STUDIO 12.0\VC\INCLUDE\VECTOR
C:\SFML-2.2\INCLUDE\SFML\NETWORK\HTTP.HPP
C:\SFML-2.2\INCLUDE\SFML\NETWORK\IPADDRESS.HPP
C:\PROGRAM FILES (X86)\MICROSOFT VISUAL STUDIO 12.0\VC\INCLUDE\MAP
C:\PROGRAM FILES (X86)\MICROSOFT VISUAL STUDIO 12.0\VC\INCLUDE\XTREE
C:\PROGRAM FILES (X86)\MICROSOFT VISUAL STUDIO 12.0\VC\INCLUDE\TUPLE
C:\SFML-2.2\INCLUDE\SFML\NETWORK\PACKET.HPP
C:\SFML-2.2\INCLUDE\SFML\NETWORK\SOCKETSELECTOR.HPP
C:\SFML-2.2\INCLUDE\SFML\NETWORK\TCPLISTENER.HPP
C:\SFML-2.2\INCLUDE\SFML\NETWORK\UDPSOCKET.HPP
C:\PROGRAM FILES (X86)\MICROSOFT VISUAL STUDIO 12.0\VC\INCLUDE\IOSTREAM
