^C:\USERS\CRISTIAN\DESKTOP\CPP_2D_GAME_PROGRAMMING\SIMPLERPG\SIMPLERPG\X64\RELEASE\GAME.OBJ|C:\USERS\CRISTIAN\DESKTOP\CPP_2D_GAME_PROGRAMMING\SIMPLERPG\SIMPLERPG\X64\RELEASE\MAIN.OBJ|C:\USERS\CRISTIAN\DESKTOP\CPP_2D_GAME_PROGRAMMING\SIMPLERPG\SIMPLERPG\X64\RELEASE\NETWORKING.OBJ|C:\USERS\CRISTIAN\DESKTOP\CPP_2D_GAME_PROGRAMMING\SIMPLERPG\SIMPLERPG\X64\RELEASE\PLAYER.OBJ|C:\USERS\CRISTIAN\DESKTOP\CPP_2D_GAME_PROGRAMMING\SIMPLERPG\SIMPLERPG\X64\RELEASE\RIGIDBODY.OBJ|C:\USERS\CRISTIAN\DESKTOP\CPP_2D_GAME_PROGRAMMING\SIMPLERPG\SIMPLERPG\X64\RELEASE\TILEMAP.OBJ
C:\SFML-2.2\LIB\SFML-GRAPHICS.LIB
C:\SFML-2.2\LIB\SFML-WINDOW.LIB
C:\SFML-2.2\LIB\SFML-SYSTEM.LIB
C:\SFML-2.2\LIB\SFML-AUDIO.LIB
C:\SFML-2.2\LIB\SFML-NETWORK.LIB
C:\PROGRAM FILES (X86)\WINDOWS KITS\8.1\LIB\WINV6.3\UM\X64\KERNEL32.LIB
C:\PROGRAM FILES (X86)\WINDOWS KITS\8.1\LIB\WINV6.3\UM\X64\USER32.LIB
C:\PROGRAM FILES (X86)\WINDOWS KITS\8.1\LIB\WINV6.3\UM\X64\GDI32.LIB
C:\PROGRAM FILES (X86)\WINDOWS KITS\8.1\LIB\WINV6.3\UM\X64\WINSPOOL.LIB
C:\PROGRAM FILES (X86)\WINDOWS KITS\8.1\LIB\WINV6.3\UM\X64\COMDLG32.LIB
C:\PROGRAM FILES (X86)\WINDOWS KITS\8.1\LIB\WINV6.3\UM\X64\ADVAPI32.LIB
C:\PROGRAM FILES (X86)\WINDOWS KITS\8.1\LIB\WINV6.3\UM\X64\SHELL32.LIB
C:\PROGRAM FILES (X86)\WINDOWS KITS\8.1\LIB\WINV6.3\UM\X64\OLE32.LIB
C:\PROGRAM FILES (X86)\WINDOWS KITS\8.1\LIB\WINV6.3\UM\X64\OLEAUT32.LIB
C:\PROGRAM FILES (X86)\WINDOWS KITS\8.1\LIB\WINV6.3\UM\X64\UUID.LIB
C:\PROGRAM FILES (X86)\WINDOWS KITS\8.1\LIB\WINV6.3\UM\X64\ODBC32.LIB
C:\PROGRAM FILES (X86)\WINDOWS KITS\8.1\LIB\WINV6.3\UM\X64\ODBCCP32.LIB
C:\USERS\CRISTIAN\DESKTOP\CPP_2D_GAME_PROGRAMMING\SIMPLERPG\SIMPLERPG\X64\RELEASE\MAIN.OBJ
C:\USERS\CRISTIAN\DESKTOP\CPP_2D_GAME_PROGRAMMING\SIMPLERPG\SIMPLERPG\X64\RELEASE\NETWORKING.OBJ
C:\USERS\CRISTIAN\DESKTOP\CPP_2D_GAME_PROGRAMMING\SIMPLERPG\SIMPLERPG\X64\RELEASE\RIGIDBODY.OBJ
C:\USERS\CRISTIAN\DESKTOP\CPP_2D_GAME_PROGRAMMING\SIMPLERPG\SIMPLERPG\X64\RELEASE\GAME.OBJ
C:\USERS\CRISTIAN\DESKTOP\CPP_2D_GAME_PROGRAMMING\SIMPLERPG\SIMPLERPG\X64\RELEASE\PLAYER.OBJ
C:\USERS\CRISTIAN\DESKTOP\CPP_2D_GAME_PROGRAMMING\SIMPLERPG\SIMPLERPG\X64\RELEASE\TILEMAP.OBJ
C:\WINDOWS\GLOBALIZATION\SORTING\SORTDEFAULT.NLS
C:\PROGRAM FILES (X86)\MICROSOFT VISUAL STUDIO 12.0\VC\BIN\X86_AMD64\C2.DLL
C:\PROGRAM FILES (X86)\MICROSOFT VISUAL STUDIO 12.0\VC\LIB\AMD64\MSVCPRT.LIB
C:\PROGRAM FILES (X86)\MICROSOFT VISUAL STUDIO 12.0\VC\LIB\AMD64\MSVCRT.LIB
C:\PROGRAM FILES (X86)\MICROSOFT VISUAL STUDIO 12.0\VC\LIB\AMD64\OLDNAMES.LIB
C:\PROGRAM FILES (X86)\MICROSOFT VISUAL STUDIO 12.0\VC\BIN\X86_AMD64\1033\LINKUI.DLL
C:\PROGRAM FILES (X86)\MICROSOFT VISUAL STUDIO 12.0\VC\BIN\MSPDBSRV.EXE
C:\PROGRAM FILES (X86)\WINDOWS KITS\8.1\BIN\X86\RC.EXE
C:\PROGRAM FILES (X86)\MICROSOFT VISUAL STUDIO 12.0\VC\BIN\CVTRES.EXE
C:\WINDOWS\SYSTEM32\TZRES.DLL
