^C:\USERS\CRISTIAN\DESKTOP\SFML(LEARNING)\TUTORIAL2\TUTORIAL2\MAIN.CPP
C:\USERS\CRISTIAN\DESKTOP\SFML(LEARNING)\TUTORIAL2\TUTORIAL2\X64\DEBUG\VC120.PDB
C:\USERS\CRISTIAN\DESKTOP\SFML(LEARNING)\TUTORIAL2\TUTORIAL2\X64\DEBUG\VC120.IDB
C:\USERS\CRISTIAN\DESKTOP\SFML(LEARNING)\TUTORIAL2\TUTORIAL2\X64\DEBUG\MAIN.OBJ
