^C:\USERS\CRISTIAN\DESKTOP\SFML(LEARNING)\TUTORIAL2\TUTORIAL2\X64\DEBUG\MAIN.OBJ
C:\USERS\CRISTIAN\DESKTOP\SFML(LEARNING)\TUTORIAL2\X64\DEBUG\TUTORIAL2.ILK
C:\USERS\CRISTIAN\DESKTOP\SFML(LEARNING)\TUTORIAL2\X64\DEBUG\TUTORIAL2.EXE
C:\USERS\CRISTIAN\DESKTOP\SFML(LEARNING)\TUTORIAL2\X64\DEBUG\TUTORIAL2.PDB
